{
    "label": "Evoluciones (Compañeros Animales)",
    "reference": [],
    "entries": {
        "Advanced Weaponry": {
            "name": "Armamento Avanzado",
            "description": "<p>El ataque de tu eidolon evoluciona.</p>\n<p>Elige uno de los ataques desarmados cuerpo a cuerpo iniciales de tu eidolon. Gana uno de los siguientes rasgos, elegidos cuando obtienes la proeza: Desarmar, Presa, No letal, Empujar, Derribar, o contundente versátil, perforante o cortante.</p> <p>"
        },
        "Bloodletting Claws": {
            "name": "Garras Sanguinarias",
            "description": "<p>Tu eidolon inflige heridas sangrantes con un golpe contundente. Si tu eidolon impacta críticamente con un Golpe desarmado cuerpo a cuerpo que inflige daño cortante o perforante, su objetivo recibe [[/r {1d6}[persistente,sangrado]]]. @Compendium[pf2e.conditionitems.lDVqvLKA6eF3Df60]{{Daño persistente por sangrado}. Tu eidolon obtiene una bonificación de objeto a este daño de sangrado igual a la bonificación de objeto del ataque sin armas a las tiradas de ataque. Este es un efecto de especialización crítica."
        },
        "Burrowing Form": {
            "name": "Forma de madriguera",
            "description": "<p>Tu eidolon puede excavar a través de tierra suelta. Tu eidolon gana una Velocidad de madriguera de 15 pies.</p>"
        },
        "Energy Heart": {
            "name": "Energy Heart",
            "description": "<p>El corazón de tu eidolon late con energía.</p>\n<p>Elige un tipo de daño de energía que no sea de fuerza. Uno de sus ataques sin armas cambia su tipo de daño al tipo elegido, y gana resistencia a ese tipo igual a la mitad de tu nivel (mínimo 1).</p> <p>"
        },
        "Energy Resistance": {
            "name": "Resistencia a la energía",
            "description": "<p>Tu eidolon tiene una resistencia más fuerte. Su resistencia de Corazón de energía y Corazón de energía dual aumenta a tu nivel.</p>"
        },
        "Hulking Size": {
            "name": "Tamaño Hulking",
            "description": "<p>Tu eidolon crece sustancialmente. Tu eidolon pasa a ser Grande, en lugar de su tamaño anterior, y su alcance aumenta a 3 metros. Esto no cambia ninguna de sus otras estadísticas.</p> <p>"
        },
        "Ever-Vigilant Senses": {
            "name": "Sentidos siempre vigilantes",
            "description": "<p>Tu eidolon tiene sentidos mejorados. Gana un bonificador +2 de circunstancia a la Percepción, y no puede ser flanqueado excepto por criaturas de nivel superior al suyo.</p> <p>Puede ver a ##########################.\n<p>Puede ver criaturas y objetos @Compendium[pf2e.conditionitems.zJxUflt9np0q4yML]{Invisible}; parecen translúcidos y están @Compendium[pf2e.conditionitems.DmAIPqOBomZ7H95W]{Ocultos}.</p> <p>\n<p>Cuando tu eidolon se mueve a menos de 30 pies de una ilusión que puede ser puesta en duda, el GM tira un chequeo de secreto para ponerlo en duda, incluso si tu eidolon no gastó una acción para Interactuar.</p> <p>"
        },
        "Grasping Limbs": {
            "name": "Agarrar extremidades",
            "description": "<p>Tu eidolon agarra a los enemigos. Elige uno de los ataques sin armas del eidolon con el rasgo Presa. Gana la acción @Compendium[pf2e.bestiary-ability-glossary-srd.Tkd8sH4pwFIPzqTr]{Agarrar}# en ese ataque desarmado.</p> <p>"
        },
        "Magical Understudy": {
            "name": "Magical Understudy",
            "description": "<p>Tu eidolon evoluciona para lanzar hechizos. Gana la actividad Lanzar un conjuro y aprende dos cantrips de su tradición, que puede lanzar como conjuros innatos.</p> <p>Tu eidolon evoluciona para lanzar conjuros."
        },
        "Defend Summoner": {
            "name": "Defender Invocador",
            "description": "<p>Tu eidolon bloquea los ataques contra ti. Después de que tu eidolon use esta acción, ganas un bonificador +2 de circunstancia a la CA hasta el comienzo de tu siguiente turno. Este bonificador sólo se aplica mientras estés dentro del alcance de tu eidolon (en la mayoría de los casos, esto significa que tu eidolon está adyacente a ti o en tu espacio).</p> <p>"
        },
        "Vibration Sense": {
            "name": "Sentido de la Vibración",
            "description": "<p>Tu eidolon gana @Compendium[pf2e.bestiary-ability-glossary-srd.j2wsK6IsW5yMW1jW]{Tremorsense} como sentido impreciso con un rango de distancia de 30 pies. Si es acuático, obtiene @Compendium[pf2e.bestiary-ability-glossary-srd.VdSMQ6yRZ3YXNXHL]{Wavesense} como sentido impreciso con un rango de distancia de 9 metros. Si es anfibio, gana ambos.</p> <p>"
        },
        "Glider Form": {
            "name": "Forma Planeadora",
            "description": "<p>Tu eidolon evoluciona con alas, un cuerpo flotante o algún otro medio para controlar el descenso.</p> <p>Su eidolon evoluciona con alas, un cuerpo flotante o algún otro medio para controlar el descenso.\n<p>Desliza lentamente hacia el suelo, 5 pies hacia abajo y hasta 25 pies hacia delante a través del aire.</p>\n<p>Mientras gaste al menos 1 acción en planear cada ronda y aún no haya alcanzado el suelo, permanece en el aire al final de tu turno.</p> <p>Siempre que no haya alcanzado el suelo, permanece en el aire al final de tu turno.</p> <p>Siempre que gaste al menos 1 acción en planear cada ronda y aún no haya alcanzado el suelo, permanece en el aire al final de tu turno."
        },
        "Pushing Attack": {
            "name": "Pushing Attack",
            "description": "<p>Tu eidolon tiene un ataque que empuja a los enemigos. Elige uno de los ataques sin armas del eidolon con el rasgo Empujar. Gana la acción @Compendium[pf2e.bestiary-ability-glossary-srd.t6cx9FOODmeZQNYl]{Empujar}# para ese ataque.</p> <p>"
        },
        "Alacritous Action": {
            "name": "Acción Alacritous",
            "description": "<p>Tu eidolon se mueve más rápido. Gana una bonificación de situación de +10 pies a su Velocidad.</p> <p>"
        },
        "Summoner Dedication Adjustment": {
            "name": "Ajuste de Dedicación de Invocador",
            "description": "<p>Este rasgo ajustará las estadísticas del eidolon para que sean correctas para los jugadores que usen la dedicación de invocador Limita todas las estadísticas a 16 hasta que el eidolon sea de nivel 5.</p> <p>Este rasgo ajustará las estadísticas del eidolon para que sean correctas para los jugadores que usen la dedicación de invocador."
        },
        "Phase Out": {
            "name": "Phase Out",
            "description": "<p>Tu eidolon sale ligeramente de la realidad, ganando resistencia a todo el daño (excepto el de fuerza y el negativo) igual a la mitad de tu nivel. No es incorpóreo, pero no puede usar Golpes ni acciones que requieran una forma totalmente física, como @Compendium[pf2e.actionspf2e.PMbdMWc2QroouFGD]{Presa}#, @Compendium[pf2e.actionspf2e.7blmbDrQFNfdT731]{Empujar}, o @Compendium[pf2e.actionspf2e.ge56Lu1xXVFYUnLP]{Empujar}.</p>\n<p>Tu eidolon puede volver a su forma normal con una única acción, que tiene el rasgo concentrado.</p> <p>"
        },
        "Magical Master": {
            "name": "Magical Master",
            "description": "<p>Tu eidolon gana un grupo de hechizos de nivel inferior. Elige un conjuro innato de la tradición de tu eidolon de cada uno de los niveles de conjuro del 1 al 7 en los que tu eidolon no tenga actualmente un conjuro innato de Adepto mágico. Tu eidolon puede lanzar cada uno de ellos una vez al día como hechizos innatos.</p> <p>\n<p>Puedes intercambiar estos hechizos en cada nivel par, pero tu eidolon nunca puede conocer más de un hechizo de cada nivel de hechizo del 1 al 7</p> <p>."
        },
        "Spell-Repelling Form": {
            "name": "Spell-Repelling Form",
            "description": "<p>Tu eidolon evoluciona para protegerse del peligro que suponen los hechizos. Obtiene un bonificador de situación de +1 a todas las tiradas de salvación contra la magia.</p> <p>"
        },
        "Ranged Combatant": {
            "name": "Combatiente a distancia",
            "description": "<p>Espinas, chorros de llamas y ráfagas sagradas son solo algunas de las formas en las que tu eidolon podría golpear a distancia. Obtiene un ataque sin armas a distancia con un incremento de rango de 30 pies que inflige 1d4 de daño y tiene los rasgos mágico y propulsión.</p> <p>\n<p>Cuando selecciones esta proeza, elige un tipo de daño: ácido, contundente, frío, electricidad, fuego, negativo, perforante, positivo o cortante. Si tu eidolon es un celestial, demonio o monitor con un alineamiento distinto a neutral verdadero, puedes elegir un tipo de daño en su alineamiento.</p> <p>"
        },
        "Eidolon's Opportunity": {
            "name": "Oportunidad del eidolon",
            "description": "<p><strong>Desencadenante</strong> Una criatura dentro del alcance de tu eidolon usa una acción de manipulación o una acción de movimiento, hace un ataque a distancia o abandona una casilla durante una acción de movimiento que esté usando.</p>\n<hr />\n<p>Tu eidolon realiza un Golpe cuerpo a cuerpo contra la criatura desencadenante. Si el ataque es un golpe crítico y el desencadenante fue una acción de manipulación, tu eidolon perturba esa acción. Este Golpe no cuenta para tu penalización de ataque múltiple, y tu penalización de ataque múltiple no se aplica a este Golpe.</p> <p>"
        },
        "Expanded Senses": {
            "name": "Sentidos Expandidos",
            "description": "<p>Tu eidolon evoluciona sentidos más agudos.</p>\n<p>Tu eidolon gana visión en la oscuridad y con poca luz, así como el olfato como sentido impreciso con un rango de distancia de 30 pies.</p>"
        },
        "Steed Form": {
            "name": "Steed Form",
            "description": "<p>Tu eidolon cambia para ser particularmente eficaz como tu montura. Mientras lo montas, obtienes tu número completo de acciones cada ronda en lugar de reducirlas a 2. Esto sólo se aplica cuando montas tu eidolon, no cuando lo hace cualquier otra persona. Tu eidolon debe ser al menos una categoría de tamaño mayor que tú para montarlo. Dado que trabajáis al unísono para moveros, las acciones de movimiento de tu eidolon mientras estáis montados ganan el rasgo de tándem.</p> <p>"
        },
        "Miniaturize": {
            "name": "Miniaturizar",
            "description": "<p>Tu eidolon puede encoger aún más. Al usar Reducir, tu eidolon puede reducir su tamaño a Minúsculo</p>"
        },
        "Dual Energy Heart": {
            "name": "Corazón de Energía Dual",
            "description": "<p>Una segunda energía habita en tu eidolon. Elige un tipo de daño de energía adicional. Tu ataque sin armas que inflige daño de energía gana el rasgo versátil para el segundo tipo de daño de energía, y tu eidolon gana una resistencia al segundo tipo de daño de energía igual a la mitad de tu nivel.</p> <p>"
        },
        "Towering Size": {
            "name": "Towering Size",
            "description": "<p>Tu eidolon se hace aún más grande. Se convierte en Enorme, en lugar de Grande, y el alcance de todos sus ataques aumenta a 15 pies.</p> <p>Tu eidolón se hace aún más grande."
        },
        "Trample": {
            "name": "Trample",
            "description": "<p>Tu eidolon da Zancadas hasta duplicar su Velocidad y puede moverse a través de los espacios de criaturas de al menos un tamaño menor, Pisoteando a cada criatura en cuyo espacio entre. Puede hacer un Trample a la misma criatura sólo una vez en un único Trample.</p> <p>Inflige un golpe contundente a la criatura.\n<p>Inflige daño contundente igual al daño de su ataque secundario contra estas criaturas, que pueden hacer una salvación básica de Reflejos contra la CC de tu hechizo.</p> <p>Intenta golpear a cada criatura en cuyo espacio entra."
        },
        "Amphibious Form": {
            "name": "Forma anfibia",
            "description": "<p>Tu eidolon se adapta a la vida en tierra y bajo el agua. Obtiene el rasgo anfibio, que le permite respirar en el agua y en el aire y evitar la penalización normal de -2 al realizar Golpes desarmados contundentes y cortantes bajo el agua. Obtiene una Velocidad al nadar igual a su Velocidad terrestre o 25 pies, la que sea menor; o si normalmente es acuático, obtiene una Velocidad terrestre igual a su Velocidad al nadar o 25 pies, la que sea menor.</p> <p>"
        },
        "Constricting Hold": {
            "name": "Constricting Hold",
            "description": "<p><strong>Requisitos</strong> Tu eidolon tiene una criatura @Compendium[pf2e.conditionitems.kWc1fhmv9LBiTuei]{Grabbed} o @Compendium[pf2e.conditionitems.VcDeM8A5oI6VqhbM]{Restrained}#.</p>\n<p>Tu eidolon constriñe a la criatura, infligiéndole [[/r @actor.nivel+@actor.habilidades.str.mod #bludgeoning]]{daño por apaleamiento} igual al nivel de tu eidolon más su modificador de Fuerza, con una salvación básica de Fortaleza contra la CC de tu hechizo.</p>"
        },
        "Weighty Impact": {
            "name": "Impacto de peso",
            "description": "<p>Tu eidolón derriba a los enemigos. Elige uno de los ataques sin armas del eidolon con el rasgo Derribar. Obtiene la acción @Compendium[pf2e.bestiary-ability-glossary-srd.BCLvAx4Pz4MLa2pu]{Derribo}## para ese ataque.</p> <p>"
        },
        "Magical Adept": {
            "name": "Adepto Mágico",
            "description": "<p>Tu eidolon gana más magia. Elige un hechizo de 2º nivel y otro de 1º nivel de la tradición de tu eidolon. Tu eidolon puede lanzarlos cada uno una vez al día como conjuros innatos. En cada nivel par después de que obtengas esta proeza, tu eidolon puede cambiar uno de estos conjuros innatos por un nuevo conjuro innato que sea 2 o más niveles inferior a tu ranura de conjuro de nivel más alto.</p> <p>"
        },
        "Blood Frenzy": {
            "name": "Frenesí de Sangre",
            "description": "<p><strong>Requisitos</strong> La última acción de tu eidolon infligió daño de sangrado a una criatura viva.</p> <p\n<hr />\n<p>Tu eidolon vuela frenético. Obtiene los beneficios de @Compendium[pf2e.spells-srd.HStu2Yhw3iQER9tY]{Boost Eidolon}&nbsp;y gana PV temporal igual a tu nivel, pero sufre un penalizador -2 a la CA. No puede terminar voluntariamente el frenesí o comenzar otro frenesí mientras esté en el frenesí.</p> <p>\n<p>El frenesí dura 1 minuto, tras el cual tu eidolon queda @Compendium[pf2e.conditionitems.HL2l2VRSaQHu9lUw]{Fatigado}## durante 1 minuto y no puede iniciar otro frenesí durante 1 minuto.</p> <p>"
        },
        "Resilient Shell": {
            "name": "Resistente Shell",
            "description": "<p>Tu eidolon es Resistente a los ataques. Gana resistencia al daño físico igual a su modificador de Constitución.</p> <p>"
        },
        "Shrink Down": {
            "name": "Encoger",
            "description": "<p>Tu eidolon puede encogerse para caber en espacios pequeños. Tu eidolon reduce su tamaño, hasta un mínimo de tamaño Pequeño. Puede utilizar esta acción de nuevo mientras está encogido para volver a su tamaño normal.</p> <p>"
        },
        "Eidolon's Wrath": {
            "name": "Ira de Eidolon",
            "description": "<p>Tu eidolon gana el <em>@Compendium[pf2e.spells-srd.kuZnUNrhXHRYQ2eM]{Eidolon's Wrath}</em>&nbsp;conjuro de foco, que lanza él, en vez de tú. Tú determinas el tipo de daño cuando obtienes la proeza: ácido, frío, electricidad, fuego, negativo, positivo o sónico. Si tu eidolon es un celestial, demonio o monitor con un alineamiento distinto a neutro verdadero, puedes elegir un tipo de daño de su alineamiento.</p> <p>Incrementa el número de hechizos de enfoque que lanza en lugar de ti.\n<p>Incrementa el número de Puntos de Foco en tu reserva de foco en 1. Como es normal, tu eidolon comparte tus Puntos de Foco.</p> <p><strong>Puntos de Foco</strong>."
        }
    },
    "mapping": {
        "description": "system.description.value"
    }
}