{
    "label": "Macros PF2e",
    "reference": [],
    "entries": {
        "Take a Breather": {
            "name": "Tómate un respiro",
            "description": "NO TRADUCIR"
        },
        "Rest for the Night": {
            "name": "Descanso para la noche",
            "description": "NO TRADUCIR"
        },
        "Perception for Selected Tokens": {
            "name": "Percepción para fichas seleccionadas",
            "description": "NO TRADUCIR"
        },
        "Travel Duration": {
            "name": "Duración del viaje",
            "description": "NO TRADUCIR"
        },
        "Stealth for Selected Tokens": {
            "name": "Stealth for Selected Tokens",
            "description": "NO TRADUCIR"
        },
        "XP": {
            "name": "XP",
            "description": "NO TRADUCIR"
        },
        "Treat Wounds": {
            "name": "Tratar heridas",
            "description": "NO TRADUCIR"
        },
        "Earn Income": {
            "name": "Obtener ingresos",
            "description": "NO TRADUCIR"
        },
        "Toggle Compendium Browser": {
            "name": "Toggle Compendium Browser",
            "description": "NO TRADUCIR"
        }
    },
    "mapping": {}
}