{
    "label": "Mazo de críticos",
    "reference": [],
    "entries": {
        "Critical Fumble Deck #35": {
            "name": "Critical Fumble Deck #35",
            "description": "",
            "pages": {}
        },
        "Critical Fumble Deck #36": {
            "name": "Critical Fumble Deck #36",
            "description": "",
            "pages": {}
        },
        "Critical Hit Deck #33": {
            "name": "Critical Hit Deck #33",
            "description": "",
            "pages": {}
        },
        "Critical Fumble Deck #20": {
            "name": "Critical Fumble Deck #20",
            "description": "",
            "pages": {}
        },
        "Critical Fumble Deck #28": {
            "name": "Critical Fumble Deck #28",
            "description": "",
            "pages": {}
        },
        "Critical Fumble Deck #8": {
            "name": "Critical Fumble Deck #8",
            "description": "",
            "pages": {}
        },
        "Critical Hit Deck #2": {
            "name": "Critical Hit Deck #2",
            "description": "",
            "pages": {}
        },
        "Critical Hit Deck #1": {
            "name": "Critical Hit Deck #1",
            "description": "",
            "pages": {}
        },
        "Critical Fumble Deck #27": {
            "name": "Critical Fumble Deck #27",
            "description": "",
            "pages": {}
        },
        "Critical Hit Deck #28": {
            "name": "Critical Hit Deck #28",
            "description": "",
            "pages": {}
        },
        "Critical Fumble Deck #13": {
            "name": "Critical Fumble Deck #13",
            "description": "",
            "pages": {}
        },
        "Critical Fumble Deck #34": {
            "name": "Critical Fumble Deck #34",
            "description": "",
            "pages": {}
        },
        "Critical Hit Deck #29": {
            "name": "Critical Hit Deck #29",
            "description": "",
            "pages": {}
        },
        "Critical Hit Deck #50": {
            "name": "Critical Hit Deck #50",
            "description": "",
            "pages": {}
        },
        "Critical Hit Deck #34": {
            "name": "Critical Hit Deck #34",
            "description": "",
            "pages": {}
        },
        "Critical Fumble Deck #48": {
            "name": "Critical Fumble Deck #48",
            "description": "",
            "pages": {}
        },
        "Critical Fumble Deck #31": {
            "name": "Critical Fumble Deck #31",
            "description": "",
            "pages": {}
        },
        "Critical Fumble Deck #22": {
            "name": "Critical Fumble Deck #22",
            "description": "",
            "pages": {}
        },
        "Critical Fumble Deck #3": {
            "name": "Critical Fumble Deck #3",
            "description": "",
            "pages": {}
        },
        "Critical Hit Deck #5": {
            "name": "Critical Hit Deck #5",
            "description": "",
            "pages": {}
        },
        "Critical Fumble Deck #47": {
            "name": "Critical Fumble Deck #47",
            "description": "",
            "pages": {}
        },
        "Critical Hit Deck #19": {
            "name": "Critical Hit Deck #19",
            "description": "",
            "pages": {}
        },
        "Critical Fumble Deck #9": {
            "name": "Critical Fumble Deck #9",
            "description": "",
            "pages": {}
        },
        "Critical Hit Deck #3": {
            "name": "Critical Hit Deck #3",
            "description": "",
            "pages": {}
        },
        "Critical Hit Deck #12": {
            "name": "Critical Hit Deck #12",
            "description": "",
            "pages": {}
        },
        "Critical Hit Deck #15": {
            "name": "Critical Hit Deck #15",
            "description": "",
            "pages": {}
        },
        "Critical Fumble Deck #51": {
            "name": "Critical Fumble Deck #51",
            "description": "",
            "pages": {}
        },
        "Critical Hit Deck #10": {
            "name": "Critical Hit Deck #10",
            "description": "",
            "pages": {}
        },
        "Critical Fumble Deck #12": {
            "name": "Critical Fumble Deck #12",
            "description": "",
            "pages": {}
        },
        "Critical Fumble Deck #37": {
            "name": "Critical Fumble Deck #37",
            "description": "",
            "pages": {}
        },
        "Critical Hit Deck #44": {
            "name": "Critical Hit Deck #44",
            "description": "",
            "pages": {}
        },
        "Critical Hit Deck #18": {
            "name": "Critical Hit Deck #18",
            "description": "",
            "pages": {}
        },
        "Critical Fumble Deck #38": {
            "name": "Critical Fumble Deck #38",
            "description": "",
            "pages": {}
        },
        "Critical Hit Deck #45": {
            "name": "Critical Hit Deck #45",
            "description": "",
            "pages": {}
        },
        "Critical Fumble Deck #50": {
            "name": "Critical Fumble Deck #50",
            "description": "",
            "pages": {}
        },
        "Critical Hit Deck #43": {
            "name": "Critical Hit Deck #43",
            "description": "",
            "pages": {}
        },
        "Critical Hit Deck #11": {
            "name": "Critical Hit Deck #11",
            "description": "",
            "pages": {}
        },
        "Critical Fumble Deck #25": {
            "name": "Critical Fumble Deck #25",
            "description": "",
            "pages": {}
        },
        "Critical Fumble Deck #23": {
            "name": "Critical Fumble Deck #23",
            "description": "",
            "pages": {}
        },
        "Critical Hit Deck #36": {
            "name": "Critical Hit Deck #36",
            "description": "",
            "pages": {}
        },
        "Critical Fumble Deck #17": {
            "name": "Critical Fumble Deck #17",
            "description": "",
            "pages": {}
        },
        "Critical Fumble Deck #30": {
            "name": "Critical Fumble Deck #30",
            "description": "",
            "pages": {}
        },
        "Critical Hit Deck #49": {
            "name": "Critical Hit Deck #49",
            "description": "",
            "pages": {}
        },
        "Critical Fumble Deck #40": {
            "name": "Critical Fumble Deck #40",
            "description": "",
            "pages": {}
        },
        "Critical Hit Deck #25": {
            "name": "Critical Hit Deck #25",
            "description": "",
            "pages": {}
        },
        "Critical Hit Deck #24": {
            "name": "Critical Hit Deck #24",
            "description": "",
            "pages": {}
        },
        "Critical Hit Deck #16": {
            "name": "Critical Hit Deck #16",
            "description": "",
            "pages": {}
        },
        "Critical Hit Deck #23": {
            "name": "Critical Hit Deck #23",
            "description": "",
            "pages": {}
        },
        "Critical Fumble Deck #42": {
            "name": "Critical Fumble Deck #42",
            "description": "",
            "pages": {}
        },
        "Critical Fumble Deck #26": {
            "name": "Critical Fumble Deck #26",
            "description": "",
            "pages": {}
        },
        "Critical Hit Deck #21": {
            "name": "Critical Hit Deck #21",
            "description": "",
            "pages": {}
        },
        "Critical Fumble Deck #46": {
            "name": "Critical Fumble Deck #46",
            "description": "",
            "pages": {}
        },
        "Critical Fumble Deck #2": {
            "name": "Critical Fumble Deck #2",
            "description": "",
            "pages": {}
        },
        "Critical Fumble Deck #43": {
            "name": "Critical Fumble Deck #43",
            "description": "",
            "pages": {}
        },
        "Critical Fumble Deck #41": {
            "name": "Critical Fumble Deck #41",
            "description": "",
            "pages": {}
        },
        "Critical Hit Deck #20": {
            "name": "Critical Hit Deck #20",
            "description": "",
            "pages": {}
        },
        "Critical Hit Deck #40": {
            "name": "Critical Hit Deck #40",
            "description": "",
            "pages": {}
        },
        "Critical Fumble Deck #21": {
            "name": "Critical Fumble Deck #21",
            "description": "",
            "pages": {}
        },
        "Critical Fumble Deck #24": {
            "name": "Critical Fumble Deck #24",
            "description": "",
            "pages": {}
        },
        "Critical Hit Deck #52": {
            "name": "Critical Hit Deck #52",
            "description": "",
            "pages": {}
        },
        "Critical Hit Deck #53": {
            "name": "Critical Hit Deck #53",
            "description": "",
            "pages": {}
        },
        "Critical Fumble Deck #16": {
            "name": "Critical Fumble Deck #16",
            "description": "",
            "pages": {}
        },
        "Critical Hit Deck #35": {
            "name": "Critical Hit Deck #35",
            "description": "",
            "pages": {}
        },
        "Critical Hit Deck #30": {
            "name": "Critical Hit Deck #30",
            "description": "",
            "pages": {}
        },
        "Critical Hit Deck #39": {
            "name": "Critical Hit Deck #39",
            "description": "",
            "pages": {}
        },
        "Critical Fumble Deck #6": {
            "name": "Critical Fumble Deck #6",
            "description": "",
            "pages": {}
        },
        "Critical Hit Deck #4": {
            "name": "Critical Hit Deck #4",
            "description": "",
            "pages": {}
        },
        "Critical Hit Deck #7": {
            "name": "Critical Hit Deck #7",
            "description": "",
            "pages": {}
        },
        "Critical Hit Deck #9": {
            "name": "Critical Hit Deck #9",
            "description": "",
            "pages": {}
        },
        "Critical Fumble Deck #32": {
            "name": "Critical Fumble Deck #32",
            "description": "",
            "pages": {}
        },
        "Critical Hit Deck #46": {
            "name": "Critical Hit Deck #46",
            "description": "",
            "pages": {}
        },
        "Critical Fumble Deck #4": {
            "name": "Critical Fumble Deck #4",
            "description": "",
            "pages": {}
        },
        "Critical Hit Deck #6": {
            "name": "Critical Hit Deck #6",
            "description": "",
            "pages": {}
        },
        "Critical Hit Deck #42": {
            "name": "Critical Hit Deck #42",
            "description": "",
            "pages": {}
        },
        "Critical Fumble Deck #10": {
            "name": "Critical Fumble Deck #10",
            "description": "",
            "pages": {}
        },
        "Critical Hit Deck #38": {
            "name": "Critical Hit Deck #38",
            "description": "",
            "pages": {}
        },
        "Critical Fumble Deck #5": {
            "name": "Critical Fumble Deck #5",
            "description": "",
            "pages": {}
        },
        "Critical Hit Deck #37": {
            "name": "Critical Hit Deck #37",
            "description": "",
            "pages": {}
        },
        "Critical Hit Deck #17": {
            "name": "Critical Hit Deck #17",
            "description": "",
            "pages": {}
        },
        "Critical Hit Deck #31": {
            "name": "Critical Hit Deck #31",
            "description": "",
            "pages": {}
        },
        "Critical Hit Deck #8": {
            "name": "Critical Hit Deck #8",
            "description": "",
            "pages": {}
        },
        "Critical Fumble Deck #1": {
            "name": "Critical Fumble Deck #1",
            "description": "",
            "pages": {}
        },
        "Critical Fumble Deck #45": {
            "name": "Critical Fumble Deck #45",
            "description": "",
            "pages": {}
        },
        "Critical Fumble Deck #29": {
            "name": "Critical Fumble Deck #29",
            "description": "",
            "pages": {}
        },
        "Critical Fumble Deck #49": {
            "name": "Critical Fumble Deck #49",
            "description": "",
            "pages": {}
        },
        "Critical Hit Deck #47": {
            "name": "Critical Hit Deck #47",
            "description": "",
            "pages": {}
        },
        "Critical Fumble Deck #18": {
            "name": "Critical Fumble Deck #18",
            "description": "",
            "pages": {}
        },
        "Critical Hit Deck #13": {
            "name": "Critical Hit Deck #13",
            "description": "",
            "pages": {}
        },
        "Critical Fumble Deck #7": {
            "name": "Critical Fumble Deck #7",
            "description": "",
            "pages": {}
        },
        "Critical Hit Deck #48": {
            "name": "Critical Hit Deck #48",
            "description": "",
            "pages": {}
        },
        "Critical Fumble Deck #14": {
            "name": "Critical Fumble Deck #14",
            "description": "",
            "pages": {}
        },
        "Critical Hit Deck #22": {
            "name": "Critical Hit Deck #22",
            "description": "",
            "pages": {}
        },
        "Critical Fumble Deck #44": {
            "name": "Critical Fumble Deck #44",
            "description": "",
            "pages": {}
        },
        "Critical Hit Deck #41": {
            "name": "Critical Hit Deck #41",
            "description": "",
            "pages": {}
        },
        "Critical Hit Deck #32": {
            "name": "Critical Hit Deck #32",
            "description": "",
            "pages": {}
        },
        "Critical Hit Deck #27": {
            "name": "Critical Hit Deck #27",
            "description": "",
            "pages": {}
        },
        "Critical Hit Deck #26": {
            "name": "Critical Hit Deck #26",
            "description": "",
            "pages": {}
        },
        "Critical Fumble Deck #52": {
            "name": "Critical Fumble Deck #52",
            "description": "",
            "pages": {}
        },
        "Critical Hit Deck #51": {
            "name": "Critical Hit Deck #51",
            "description": "",
            "pages": {}
        },
        "Critical Fumble Deck #11": {
            "name": "Critical Fumble Deck #11",
            "description": "",
            "pages": {}
        },
        "Critical Fumble Deck #39": {
            "name": "Critical Fumble Deck #39",
            "description": "",
            "pages": {}
        },
        "Critical Fumble Deck #33": {
            "name": "Critical Fumble Deck #33",
            "description": "",
            "pages": {}
        },
        "Critical Fumble Deck #19": {
            "name": "Critical Fumble Deck #19",
            "description": "",
            "pages": {}
        },
        "Critical Fumble Deck #15": {
            "name": "Critical Fumble Deck #15",
            "description": "",
            "pages": {}
        },
        "Critical Fumble Deck #53": {
            "name": "Critical Fumble Deck #53",
            "description": "",
            "pages": {}
        },
        "Critical Hit Deck #14": {
            "name": "Critical Hit Deck #14",
            "description": "",
            "pages": {}
        }
    },
    "mapping": {}
}