{
    "label": "Constructos (Compañeros Animales)",
    "reference": [],
    "entries": {
        "Unarmed Strike 1": {
            "name": "Unarmed Strike 1",
            "description": "<p>Renombrar esta hazaña para renombrar el Golpe creado por ella, la imagen de esta hazaña también se puede ajustar a la imagen que quieras para el Golpe.</p>"
        },
        "Unarmed Strike 2": {
            "name": "Unarmed Strike 2",
            "description": "<p>Renombrar esta hazaña para renombrar el Golpe creado por ella, la imagen de esta hazaña también se puede ajustar a la imagen que quieras para el Golpe.</p>"
        },
        "Advanced Construct": {
            "name": "Advanced Construct",
            "description": ""
        },
        "Incredible Construct": {
            "name": "Incredible Construct",
            "description": ""
        },
        "Prototype Construct": {
            "name": "Prototype Construct",
            "description": ""
        },
        "Paragon Construct": {
            "name": "Paragon Construct",
            "description": ""
        }
    },
    "mapping": {
        "description": "system.description.value"
    }
}