{
    "label": "Habilidades de compañero",
    "reference": [],
    "entries": {
        "Accompanist": {
            "name": "Acompañante (Accompanist)",
            "description": "<p>Tu Familiar te ayuda a Interpretar. Siempre que hagas un chequeo de Interpretar, si tu Familiar está cerca y puede actuar, te acompaña con gorjeos, palmas o su propio instrumento en miniatura. Esto te otorga un bonificador de circunstancia +1, o +2 si eres un maestro en Interpretar.</p> <p>"
        },
        "Wavesense": {
            "name": "Wavesense",
            "description": "<p>Tu Familiar puede sentir las vibraciones del agua. Consigue sentir ondulaciones imprecisas con un rango de distancia de 30 pies.</p> <p>Tu familiar puede sentir las vibraciones en el agua."
        },
        "Master's Form": {
            "name": "Master's Form",
            "description": "<p>Tu Familiar puede cambiar de forma como una sola acción, transformándose en un humanoide de tu ascendencia con la misma edad, sexo y complexión de su forma verdadera, aunque siempre mantiene un resto claramente antinatural de su naturaleza, como los ojos de un gato o la lengua de una serpiente. Esta forma es siempre la misma cada vez que utiliza esta habilidad. Por lo demás, utiliza los efectos de la <em>forma humanoide</em>, salvo que el cambio es puramente cosmético. Sólo parece humanoide y no obtiene nuevas capacidades. Tu Familiar debe tener las habilidades de destreza manual y habla para seleccionar esto.</p> <p>"
        },
        "Fast Movement: Fly": {
            "name": "Movimiento rápido: Volar (Fast Movement: Fly)",
            "description": "<p>Incrementa la Velocidad de vuelo del Familiar de 25 pies a 40 pies.</p>"
        },
        "Spell Delivery": {
            "name": "Spell Delivery",
            "description": "<p>Si tu Familiar está en tu espacio, puedes lanzar un hechizo con un rango de distancia de toque, transferir su poder a tu Familiar, y ordenar al Familiar que entregue el hechizo. Si lo haces, el Familiar utiliza sus 2 acciones de la ronda para moverse a un objetivo de tu elección y tocarlo. Si no llega al objetivo para tocarlo este turno, el hechizo no tiene efecto.</p> <p>"
        },
        "Fast Movement: Swim": {
            "name": "Movimiento rápido: Nadar (Fast Movement: Swim)",
            "description": "<p>Aumenta la Velocidad de Nadar del Familiar de 25 pies a 40 pies.</p>"
        },
        "Darkeater": {
            "name": "Darkeater",
            "description": "<p>Tu Familiar se recupera de forma natural en las sombras. Tras pasar 10 minutos consecutivos en una zona de luz tenue u oscuridad, tu Familiar recupera un número de Puntos de Golpe igual a la mitad de tu nivel.</p> <p>Tu Familiar se recupera de forma natural en las sombras.\n<p>Esta habilidad es para un Familiar de Sombra. Un shadowcaster, sin embargo, puede seleccionar esta habilidad para cualquier tipo de Familiar.</p> <p>"
        },
        "Toolbearer": {
            "name": "Toolbearer",
            "description": "<p>Tu Familiar puede llevar un conjunto de herramientas de hasta Bulto de luz. Mientras tu Familiar esté adyacente a ti, puedes sacar y reemplazar las herramientas como parte de la acción que las usa como si las llevaras puestas. Tu Familiar debe tener la habilidad de destreza manual para seleccionar esto.</p> <p>"
        },
        "Resistance": {
            "name": "Resistencia (Resistance)",
            "description": "<p>Elige dos de los siguientes: ácido, frío, electricidad, fuego, veneno o sónico. Tu Familiar gana una resistencia igual a la mitad de tu nivel contra los tipos de daño elegidos.</p> <p>"
        },
        "Scent": {
            "name": "Scent",
            "description": "<p>Gana olor (impreciso, 30 pies).</p>"
        },
        "Spell Battery": {
            "name": "Batería de Hechizos (Spell Battery)",
            "description": "<p>Ganas una ranura de conjuro adicional de al menos 3 niveles menos que tu ranura de conjuro de nivel más alto; debes poder lanzar conjuros de 4º nivel usando ranuras de conjuro para seleccionar esta habilidad maestra.</p>"
        },
        "Damage Avoidance: Reflex": {
            "name": "Evasión de Daño: Reflejo (Damage Avoidance: Reflex)",
            "description": "<p>No recibe daño cuando tiene éxito en las salvaciones de Reflejos; esto no evita efectos distintos al daño.</p>"
        },
        "Greater Resistance": {
            "name": "Mayor Resistencia (Greater Resistance)",
            "description": "<p>Tu familiar aumenta la resistencia que obtiene de su aptitud familiar de resistencia a 3 + la mitad de tu nivel. Tu familiar debe tener la habilidad @UUID[Compendium.pf2e.familiar-abilities.FcQQLMAJMgOLjnSv]{Resistencia}# para seleccionar esto.</p> <p>"
        },
        "Touch Telepathy": {
            "name": "Toque de telepatía (Touch Telepathy)",
            "description": "<p>Tu Familiar puede comunicarse telepáticamente contigo a través del tacto. Si también tiene la habilidad de habla, puede comunicarse telepáticamente a través del tacto con cualquier criatura si comparten un idioma.</p> <p>Tu familiar puede comunicarse telepáticamente contigo a través del tacto."
        },
        "Radiant": {
            "name": "Radiante (Radiant)",
            "description": "<p>Tu Familiar está lleno de un resplandor divino que lo hace resistente a las fuerzas del maligno. Tu Familiar gana resistencia al maligno y al daño negativo igual a la mitad de tu nivel.</p> <p><em>Tu Familiar gana resistencia al maligno y al daño negativo igual a la mitad de tu nivel</em>.\n<p><em>Nota: Como los efectos puestos sobre un actor no pueden referenciar datos de otro actor, la resistencia de la mitad del nivel del PC no es automatizable. Por favor, actualiza las resistencias de los familiares en consecuencia.</em></p> <p><em>Resistencia de la mitad del nivel de PC</em>"
        },
        "Verdant Burst": {
            "name": "Estallido de vegetación (Verdant Burst)",
            "description": "<p>Requisitos @UUID[Compendium.pf2e.feats-srd.baz18CdB13DVMHV9]{Leshy Familiar Secrets}</p>\n<p>Cuando tu familiar muere, libera su energía primigenia para lanzar la versión de 3 acciones de <em>##656a4993d5e9bde46770905b30558b###{Sanar}###</em>, potenciada a un nivel 1 inferior al de tu ranura de conjuros de mayor nivel. El conjuro <em>curar</em> obtiene un bonificador de situación igual al doble del nivel del conjuro a los Puntos de Golpe que restaura a las plantas. Debes ser capaz de lanzar conjuros de 2º nivel usando ranuras de conjuro para seleccionar esta habilidad de familiar.</p> <p"
        },
        "Familiar Focus": {
            "name": "Enfoque Familiar (Familiar Focus)",
            "description": "<p>Una vez al día, tu Familiar puede usar 2 acciones con el rasgo de concentración para restablecimiento de 1 Punto de Foco a tu reserva de foco, hasta tu máximo habitual. Debes tener una reserva de foco para seleccionar esto.</p> <p>"
        },
        "Threat Display": {
            "name": "Pantalla de amenaza (Threat Display)",
            "description": "<p>Tu Familiar te ayuda a transmitir amenazas sin palabras a través del lenguaje corporal</p> <p>.\n<p>Cada vez que haces un chequeo de Intimidación para @UUID[Compendium.pf2e.actionspf2e.2u915NdUyQan6uKF]{Desmoralizar}# a una criatura, si tu Familiar se encuentra a menos de 30 pies de tu objetivo y puede actuar, te acompaña con gruñidos, siseos o levantando los hoces.</p>\n<p>Si puede hacerlo, no sufres la penalización normal de -4 en el chequeo de Intimidación si tu objetivo no entiende el idioma en el que hablas.</p> <p>Si puede hacerlo, no sufres la penalización normal de -4 en el chequeo de Intimidación si tu objetivo no entiende el idioma en el que hablas."
        },
        "Tough": {
            "name": "Dureza (Tough)",
            "description": "<p>Los PS máximos de tu Familiar aumentan en 2 por nivel.</p>"
        },
        "Second Opinion": {
            "name": "Segunda Opinión (Second Opinion)",
            "description": "<p>Tu Familiar es tu confidente académico.</p>\n<p>A pesar de ser un esbirro, tu Familiar gana 1 reacción al inicio de sus turnos, que sólo puede usar para @UUID[Compendium.pf2e.actionspf2e.HCl3pzVefiv9ZKQW]{Ayudar}## contigo en un chequeo de habilidad Recordar conocimiento de una habilidad en la que tenga la habilidad @UUID[Compendium.pf2e.familiar-abilities.jevzf9JbJJibpqaI]{Skilled}# familiar (aún tiene que prepararse para ayudarte como es normal para la reacción Prestar ayuda).</p>\n<p>Tiene éxito automáticamente en su chequeo para Prestarte ayuda con esas habilidades o tiene éxito crítico automáticamente si eres un maestro de la habilidad en cuestión. Tu Familiar debe tener la habilidad Destreza para seleccionar esto.</p> <p>"
        },
        "Soul Sight": {
            "name": "Soul Sight",
            "description": "<p>Tu Familiar obtiene @UUID[Compendium.pf2e.bestiary-ability-glossary-srd.sebk9XseMCRkDqRg]{Lifesense}# con un rango de distancia de 30 pies.</p>"
        },
        "Tremorsense": {
            "name": "Tremorsense",
            "description": "<p>Tu Familiar es muy consciente de las vibraciones que atraviesan una superficie. Obtiene un sentido del temblor impreciso con un rango de distancia de 9 metros."
        },
        "Share Senses": {
            "name": "Compartir Sentidos (Share Senses)",
            "description": "<p>Una vez cada 10 minutos, puedes usar una única acción con el rasgo concentrado para proyectar tus sentidos en tu Familiar. Cuando lo haces, pierdes toda la información sensorial de tu propio cuerpo, pero puedes sentir a través del cuerpo de tu Familiar hasta 1 minuto. Puedes anular este efecto.</p> <p>"
        },
        "Independent": {
            "name": "Independiente (Independent)",
            "description": "<p>En un encuentro, si no das orden imperiosa a tu Familiar, éste sigue ganando 1 acción cada asalto. Normalmente, sigues decidiendo cómo gasta esa acción, pero, el GM podría determinar que tu Familiar elija sus propias tácticas en lugar de realizar tu acción preferida. Esto no funciona con @UUID[Compendium.pf2e.familiar-abilities.9PsptrEoCC4QdM23]{Valet}# o habilidades similares que requieran una orden imperiosa, si eres capaz de Montar a tu Familiar, o situaciones similares.</p> <p>"
        },
        "Augury": {
            "name": "Augurio (Augury)",
            "description": "<p>Tu familiar puede vislumbrar los hilos del destino para darte una pista críptica sobre tu futuro. Tu familiar puede lanzar <em>@UUID[Compendium.pf2e.spells-srd.41TZEjhO6D1nWw2X]{Augurio}</em> una vez al día usando tu tradición mágica y la CC del conjuro. Debes ser al menos de 8º nivel para seleccionar esta habilidad.</p> <p>"
        },
        "Climber": {
            "name": "Escalador (Climber)",
            "description": "<p>Gana una Velocidad de Trepar de 25 pies.</p>"
        },
        "Fast Movement: Land": {
            "name": "Movimiento rápido: Tierra (Fast Movement: Land)",
            "description": "<p>Aumenta la Velocidad terrestre del Familiar de 25 pies a 40 pies.</p>"
        },
        "Partner in Crime": {
            "name": "Partner in Crime",
            "description": "<p>Tu Familiar es tu socio delincuente. A pesar de ser un esbirro, tu Familiar gana 1 reacción al inicio de sus turnos, que sólo puede usar para Prestarte ayuda en un chequeo de habilidad de Enga o Latrocinio (sigue teniendo que prepararse para ayudarte como es normal para la reacción de Ayuda). Prestar ayuda con esas habilidades tiene éxito automáticamente o tiene éxito crítico automáticamente si eres un maestro de la habilidad en cuestión.</p> <p class=\"text-align: justify: justify: justify: justify: justify: justify: justify: justify: justify: justify: justify: justify: justify: justify: justify: justify: justify: justify: justify: justify: justify: justify\"."
        },
        "Recall Familiar": {
            "name": "Recall Familiar",
            "description": "<p>Puedes invocar a tu Familiar a tu lado. Una vez al día, puedes usar una actividad de 3 acciones, que tiene el rasgo concentrado, para teletransportar a tu familiar a tu espacio. Tu Familiar debe estar dentro de 1 milla o el intento de invocarlo falla. Este es un efecto de conjuración y teletransporte.</p> <p>"
        },
        "Innate Surge": {
            "name": "Oleaje Innato (Innate Surge)",
            "description": "<p>Una vez al día, puedes recurrir a la magia innata de tu Familiar para reponer la tuya. Puedes lanzar un conjuro innato obtenido de una proeza de ascendencia que ya hayas lanzado hoy. Aun así, debes Lanzar el conjuro y cumplir los demás requisitos del conjuro.</p> <p>"
        },
        "Gills": {
            "name": "Agallas (Gills)",
            "description": "<p>A tu Familiar le crecen un conjunto de branquias, lo que le permite respirar agua además de aire.</p>"
        },
        "Cantrip Connection": {
            "name": "Conexión de truco (Cantrip Connection)",
            "description": "<p>Puedes preparar un cantrip adicional, o si tienes un repertorio, en su lugar designar un cantrip para añadir a tu repertorio cada vez que selecciones esta habilidad; puedes volver a entrenarlo pero no puedes cambiarlo de otro modo. Debes ser capaz de preparar cantrips o añadirlos a tu repertorio para seleccionar esto.</p> <p>"
        },
        "Erudite": {
            "name": "Erudito (Erudite)",
            "description": "<p>Tu Familiar tiene un sensacional conocimiento religioso. A pesar de ser un esbirro, tu Familiar gana 1 reacción al inicio de sus turnos, que sólo puede usar para @UUID[Compendium.pf2e.actionspf2e.HCl3pzVefiv9ZKQW]{Ayudar}## en un chequeo de Religión (aún tiene que prepararse para ayudarte como es normal para la reacción de Prestar ayuda). Presta ayuda automáticamente con éxito en los chequeos de Religión o automáticamente con éxito crítico si eres un maestro en Religión.</p> <p>"
        },
        "Luminous": {
            "name": "Luminoso (Luminous)",
            "description": "<p>Tu Familiar brilla con una luz reconfortante. Derrama luz brillante en un radio de 30 pies y luz tenue durante los siguientes 30 pies. Puede suprimir o reanudar esta luz usando una acción, que tiene el rasgo concentrar.</p> <p>"
        },
        "Amphibious": {
            "name": "Anfibio (Amphibious)",
            "description": "<p>Gana una Velocidad de Nadar de 25 pies (o Velocidad de 25 pies si ya tiene Velocidad de Nadar).</p>"
        },
        "Flier": {
            "name": "Volador (Flier)",
            "description": "<p>Gana una Velocidad de volar de 25 pies.</p>"
        },
        "Tattoo Transformation": {
            "name": "Tatuaje Transformación (Tattoo Transformation)",
            "description": "<p>Tu Familiar puede transformarse en un tatuaje que lleves en tu carne. Cuando se transforma en un tatuaje, el Familiar parece una versión colorida y estilizada de sí mismo y no puede actuar excepto para volver a convertirse en un Familiar. No le afectan los efectos de área y debe ser designado como objetivo por separado para afectarle, lo que requiere saber que es una criatura. Esto significa que tú y tus aliados podéis curar o ayudar al Familiar mientras la mayoría de los enemigos ignoran su verdadera naturaleza. Las criaturas deben intentar un chequeo @Check[type:perception|dc:20|showDC:all] de Buscar para darse cuenta de que un tatuaje es en realidad un Familiar (cosa que pocos enemigos intentarán). Tu Familiar aún puede comunicar sus sentimientos empáticamente. Transformarse en un tatuaje o volver a la forma Familiar es una actividad de 1 minuto que tiene el rasgo Concentrar.</p> <p>"
        },
        "Manual Dexterity": {
            "name": "Destreza Manual (Manual Dexterity)",
            "description": "<p>Puede utilizar hasta dos de sus extremidades como si fueran manos para utilizar acciones de manipulación.</p>"
        },
        "Lifelink": {
            "name": "Lifelink",
            "description": "<p>Si tu Familiar quedaría reducido a 0 PV por el daño, como reacción con el rasgo concentrado, puedes recibir el daño. Si lo haces, recibes todo el daño y tu Familiar no recibe ninguno. Sin embargo, los efectos especiales que se producirían debido a ese daño (como el veneno de serpiente) se siguen aplicando a tu Familiar.</p> <p><strong>Efectos especiales</strong>."
        },
        "Extra Reagents": {
            "name": "Reactivos Extra (Extra Reagents)",
            "description": "<p>A tu Familiar le crecen reactivos infundidos extra sobre o dentro de su cuerpo. Obtienes un lote adicional de reactivos infundidos. Debes tener la habilidad reactivos infundidos para seleccionar esta habilidad.</p> <p>"
        },
        "Darkvision": {
            "name": "Visión en la oscuridad (Darkvision)",
            "description": "<p>Gana visión en la oscuridad.</p>"
        },
        "Valet": {
            "name": "Valet",
            "description": "<p>Puedes ordenar a tu Familiar que te entregue objetos de forma más eficiente. Tu Familiar no usa sus 2 acciones inmediatamente a tu orden imperiosa. En su lugar, hasta dos veces antes del final de tu turno, puedes hacer que tu Familiar Interactúe para recuperar un objeto de Luz o Bulto insignificante que lleves puesto y colocarlo en una de tus manos libres. El Familiar no puede usar esta habilidad para recuperar objetos guardados. Si el Familiar tiene un número diferente de acciones, puede recuperar un objeto por cada acción que tenga cuando se le ordena de esta forma.</p> <p>"
        },
        "Speech": {
            "name": "Discurso (Speech)",
            "description": "<p>Entiende y habla un idioma que conoces.</p>"
        },
        "Burrower": {
            "name": "Burrower",
            "description": "<p>Gana una Velocidad de madriguera de 1,5 metros, lo que le permite cavar agujeros Minúsculos.</p> <p>"
        },
        "Kinspeech": {
            "name": "Kinspeech",
            "description": "<p>Puede entender y hablar con los animales de su misma especie. Para seleccionar esto, tu Familiar debe ser un animal, debe tener la habilidad de Hablar y tú debes ser al menos de 6º nivel.</p> <p>Para seleccionar esto, tu Familiar debe ser un animal, debe tener la habilidad de Hablar y tú debes ser al menos de 6º nivel."
        },
        "Medic": {
            "name": "Medic",
            "description": "<p>Tu Familiar puede recurrir al poder de tu deidad para @UUID[Compendium.pf2e.actionspf2e.aBQ8ajvEBByv45yz]{Lanzar un Conjuro}# una vez al día. El Familiar puede lanzar la versión de 1 acción de <em>@UUID[Compendium.pf2e.spells-srd.rfZpqmj0AIIdkVIs]{Heal}</em> a un nivel 2 niveles inferior al de tu ranura de conjuro de nivel más alto, que sólo puede lanzar sobre ti. Debes ser capaz de lanzar conjuros de 3er nivel desde ranuras de conjuro para seleccionar esta habilidad.</p> <p"
        },
        "Plant Form": {
            "name": "Forma de planta (Plant Form)",
            "description": "<p>Tu familiar vegetal puede cambiar de forma como acción única, transformándose en una planta Diminuta de un tipo más o menos similar a la naturaleza del familiar. Esto utiliza de otro modo los efectos de <em>forma de árbol</em>. Debes tener un familiar con el rasgo de planta, como un leshy, para seleccionar esta habilidad.</p> <p>"
        },
        "Major Resistance": {
            "name": "Resistencia superior (Major Resistance)",
            "description": "<p>Tu familiar aumenta la resistencia que obtiene de su habilidad familiar de resistencia a un valor igual a tu nivel. Para seleccionar esto, tu familiar debe tener la habilidad @UUID[Compendium.pf2e.familiar-abilities.zKTL9y9et0oTHEYS]{Greater Resistance} y tú debes ser al menos de 8º nivel.</p> <p>"
        },
        "Fast Movement: Climb": {
            "name": "Movimiento rápido: Trepar (Fast Movement: Climb)",
            "description": "<p>Aumenta la Velocidad de Trepar del Familiar de 25 pies a 40 pies.</p>"
        },
        "Purify Air": {
            "name": "Purificar Aire (Purify Air)",
            "description": "<p>Requisitos @UUID[Compendium.pf2e.feats-srd.baz18CdB13DVMHV9]{Leshy Familiar Secrets}</p>\n<p>Tu Familiar recicla el aire, proporcionando oxígeno suficiente para una criatura Mediana en zonas con aire viciado, como una cámara sellada o un espacio extradimensional. Si el leshy se encuentra dentro del área de un efecto de veneno inhalado o un efecto que dependa del olor, las criaturas que se encuentren a un @Template[type:emanation|distance:15]# del leshy obtienen un bonificador +2 de circunstancia a sus tiradas de salvación contra el efecto.</p> <p>"
        },
        "Spellcasting": {
            "name": "Spellcasting",
            "description": "<p>Elige un hechizo de tu repertorio o que hayas preparado hoy de al menos 5 niveles menos que tu ranura de hechizo de nivel más alto. Tu Familiar puede Lanzar ese Conjuro una vez al día usando tu tradición mágica, modificador de ataque al conjuro y DC del conjuro. Si el conjuro tiene un inconveniente que afecta al lanzador, tanto tú como tu familiar os veis afectados. Debes ser capaz de lanzar conjuros de 6º nivel usando ranuras de conjuro para seleccionar esto.</p> <p>"
        },
        "Damage Avoidance: Fortitude": {
            "name": "Evasión de Daño: Fortaleza (Damage Avoidance: Fortitude)",
            "description": "<p>No recibe daño cuando tiene éxito en las salvaciones de Fortaleza; esto no evita efectos distintos al daño.</p>"
        },
        "Mask Freeze": {
            "name": "Congelación de máscara (Mask Freeze)",
            "description": "<p>Cuando está en forma de máscara, tu Familiar puede ocultar sus evidentes cualidades sobrenaturales para pasar por una simple máscara sin pretensiones. No necesita Imitar para engañar a una mirada pasajera, y obtiene un bonificador +4 de circunstancia a su DC de Enga contra un observador activo que lo esté Buscando o estudiando de otra forma.</p> <p>"
        },
        "Snoop": {
            "name": "Snoop",
            "description": "<p>Tu Familiar mantiene los ojos y los oídos abiertos, listo para retransmitir cada retazo de cotilleo que pilla, ayudándote a reunir información</p> <p>.\n<p>A pesar de ser un esbirro, tu Familiar gana 1 reacción al inicio de sus turnos, que sólo puede usar para @UUID[Compendium.pf2e.actionspf2e.HCl3pzVefiv9ZKQW]{Ayudar}## contigo en un chequeo de Diplomacia para @UUID[Compendium.pf2e.actionspf2e.plBGdZhqq5JBl1D8]{Reunir información}# (sigue teniendo que prepararse para ayudarte como es normal para la reacción de Ayuda, que requiere que participe durante toda la actividad).</p>\n<p>Tiene éxito automáticamente en su chequeo para Prestarte ayuda con esas habilidades o tiene éxito crítico automáticamente si eres un maestro de la habilidad en cuestión.</p> <p><strong>Ayudar</strong>."
        },
        "Poison Reservoir": {
            "name": "Poison Reservoir",
            "description": "<p>Tu familiar homúnculo tiene un depósito de veneno, lo que le permite aplicar un veneno de daño al arma expuesta de un aliado adyacente con una sola acción de Interactuar. Debes suministrar el veneno e instilarlo en este depósito usando dos acciones Interactuar consecutivas. Debes tener un homúnculo Familiar para seleccionar esta habilidad."
        },
        "Skilled": {
            "name": "Hábil (Skilled)",
            "description": "<p>Elige una habilidad que no sea Acrobacias o Sigilo. El modificador de tu Familiar para esa habilidad es igual a tu nivel más tu modificador de habilidad clave de lanzamiento de conjuros, en lugar de sólo tu nivel. Puedes seleccionar esta habilidad repetidamente, eligiendo una habilidad diferente cada vez.</p> <p>"
        },
        "Restorative Familiar": {
            "name": "Familiar restablecimiento (Restorative Familiar)",
            "description": "<p>Una vez al día, tu Familiar puede usar 2 acciones con el rasgo concentrado para ceder parte de su energía animadora y curarte. Debe estar en tu espacio para hacerlo. Restauras un número de Puntos de Golpe igual a [[/r max(floor(@actor.level/2)d8, 1d8)]]{1d8 veces la mitad de tu nivel} (mínimo 1d8).</p> <p>"
        },
        "Lab Assistant": {
            "name": "Asistente de Laboratorio (Lab Assistant)",
            "description": "<p>Puede usar su acción Alquimia rápida. Debe tener Alquimia rápida, y su familiar debe estar en su espacio. Esto tiene el mismo coste y requisito que si lo usaras. Debe tener la habilidad de destreza manual para seleccionar esto.</p>"
        },
        "Grasping Tendrils": {
            "name": "Agarrar con zarcillos (Grasping Tendrils)",
            "description": "<p>Requisitos @UUID[Compendium.pf2e.feats-srd.baz18CdB13DVMHV9]{Leshy Familiar Secrets}</p>\n<p>Tu Familiar puede extender enredaderas o zarcillos similares, aumentando su alcance a 15 pies.</p> <p>Tu Familiar puede extender enredaderas o zarcillos similares, aumentando su alcance a 15 pies.</p> <p>Tu Familiar puede extender enredaderas o zarcillos similares, aumentando su alcance a 15 pies."
        },
        "Ambassador": {
            "name": "Embajador (Ambassador)",
            "description": "<p>Tu Familiar sabe cómo actuar de forma simpática o concentrada en el momento oportuno, ayudándote a causar una buena impresión.</p> <p>\n<p>A pesar de ser un esbirro, tu Familiar gana 1 reacción al inicio de sus turnos, que puede usar solo para @UUID[Compendium.pf2e.actionspf2e.HCl3pzVefiv9ZKQW]{Ayudar}### contigo en un chequeo de Diplomacia para @UUID[Compendium.pf2e.actionspf2e.OX4fy22hQgUHDr0q]{Prestar ayuda}# (sigue teniendo que prepararse para ayudarte como es normal para la reacción de Ayuda, que requiere que participe durante toda la actividad).</p>\n<p>Tiene éxito automáticamente en su chequeo para Prestarte ayuda con esas habilidades o tiene éxito crítico automáticamente si eres un maestro de la habilidad en cuestión.</p> <p><strong>Prestar ayuda</strong>."
        },
        "Spirit Touch": {
            "name": "Spirit Touch",
            "description": "<p>Tu Familiar puede tocar criaturas incorpóreas. Si tienes la habilidad maestra de entrega de conjuros de tu Familiar, cualquier conjuro que el Familiar entregue con él obtiene los beneficios de la runa de propiedad <em>@UUID[Compendium.pf2e.equipment-srd.JQdwHECogcTzdd8R]{Toque fantasmal}</em>.</p> <p>"
        },
        "Shadow Step": {
            "name": "Paso de Sombra (Shadow Step)",
            "description": "<p>Esta habilidad es para un Familiar de Sombra. Un @UUID[Compendium.pf2e.feats-srd.ncrNQcwm4gOQRAA3]{Shadowcaster}, sin embargo, puede seleccionar esta habilidad para cualquier tipo de Familiar. Tu Familiar gana la acción @UUID[Compendium.pf2e.actionspf2e.VQ5OxaDKE0lCj8Mr]{Sombra Step}.</p> <p>\n<p>Debes ser al menos de 7º nivel para seleccionar esta habilidad de familiar para tu familiar.</p>"
        },
        "Damage Avoidance: Will": {
            "name": "Evasión de Daño: Voluntad (Damage Avoidance: Will)",
            "description": "<p>No recibe daño cuando tiene éxito en las salvaciones de Voluntad; esto no evita efectos distintos al daño.</p>"
        },
        "Focused Rejuvenation": {
            "name": "Focused Rejuvenation",
            "description": "<p>Cuando Reenfocas, generas energía mágica que cura a tu familiar. Tu Familiar recupera 1 Punto de Golpe por nivel cada vez que Reenfocas.</p>"
        }
    },
    "mapping": {
        "description": "system.description.value"
    }
}