{
    "label": "Macros PF2e",
    "reference": [],
    "entries": {
        "Take a Breather": {
            "name": "Tómate un respiro (Take a Breather)",
            "description": "NO TRADUCIR"
        },
        "Rest for the Night": {
            "name": "Descanso para la noche (Rest for the Night)",
            "description": "NO TRADUCIR"
        },
        "Perception for Selected Tokens": {
            "name": "Percepción para fichas seleccionadas (Perception for Selected Tokens)",
            "description": "NO TRADUCIR"
        },
        "Travel Duration": {
            "name": "Duración del viaje (Travel Duration)",
            "description": "NO TRADUCIR"
        },
        "Stealth for Selected Tokens": {
            "name": "Stealth for Selected Tokens",
            "description": "NO TRADUCIR"
        },
        "XP": {
            "name": "XP",
            "description": "NO TRADUCIR"
        },
        "Treat Wounds": {
            "name": "Tratar heridas (Treat Wounds)",
            "description": "NO TRADUCIR"
        },
        "Earn Income": {
            "name": "Obtener ingresos (Earn Income)",
            "description": "NO TRADUCIR"
        },
        "Toggle Compendium Browser": {
            "name": "Toggle Compendium Browser",
            "description": "NO TRADUCIR"
        }
    },
    "mapping": {}
}