{
    "label": "Ascendencias y clases (Compañeros Animales)",
    "reference": [],
    "entries": {
        "Dromaeosaur": {
            "name": "Dromaeosaur",
            "description": "<p>Tu compañero es un dromaeosaurio (también llamado rapaz), como un velociraptor o un deinonychus.</p> <p><strong>Dromaeosaurio</strong>.\n<p><strong>Tamaño</strong> Pequeño</p>\n<p><strong>Melee</strong> <span class=\"pf2-icon\">1</span> fauces (finesse), <strong>Daño</strong> 1d8 perforante</p>\n<p><strong>Melee</strong> <span class=\"pf2-icon\">1</span> garra (ágil, finura), <strong>Daño</strong> 1d6 cortante</p>\n<p><strong>Str</strong> +2, <strong>Dex</strong> +3, <strong>Con</strong> +2, <strong>Int</strong> -4, <strong>Wis</strong> +1, <strong>Cha</strong> +0</p>\n<p><strong>Puntos de Golpe</strong> 6</p>\n<p><strong>Habilidad</strong> Sigilo</p>\n<p><strong>Sentidos</strong> visión con poca luz, olfato (impreciso, 30 pies)</p> <p>Sentidos</strong>.\n<p><strong>Velocidad</strong> 50 pies</p>\n<p><strong>Beneficio de Apoyo</strong> Tu rapaz se lanza constantemente en posición de flanqueo. Hasta el comienzo de tu siguiente turno, cuenta como si estuviera en su espacio o en un espacio vacío a tu elección en un radio de 10 pies al determinar si tú y tu compañero estáis flanqueando; puedes elegir un espacio diferente para cada uno de tus ataques).</p> <p><strong>Beneficio de apoyo</strong>.\n<p><strong>Maniobra avanzada</strong> @Compendium[pf2e-animal-companions.AC-Advanced-Maneuvers.ClUiCoBn3lHBBK5c]{Ataque fugaz}</p>"
        },
        "Bird": {
            "name": "Bird",
            "description": "<p>Tu compañero es un ave rapaz, como un águila, un halcón o un búho.</p> <p\n<p><strong>Tamaño</strong> Pequeño</p>\n<p><strong>Melee</strong> <span class=\"pf2-icon\">1</span> fauces (finesse), <strong>Daño</strong> 1d6 perforante</p>\n<p><strong>Melee</strong> <span class=\"pf2-icon\">1</span> garra (ágil, finura), <strong>Daño</strong> 1d4 tajante</p>\n<p><strong>Str</strong> +2, <strong>Dex</strong> +3, <strong>Con</strong> +1, <strong>Int</strong> -4, <strong>Wis</strong> +2, <strong>Cha</strong> +0</p>\n<p><strong>Puntos de Golpe</strong> 4</p>\n<p><strong>Habilidad</strong> Sigilo</p>\n<p><strong>Sentidos</strong> visión con poca luz</p>\n<p><strong>Velocidad</strong> 10 pies, volar 60 pies</p>\n<p><strong>Beneficio de Apoyo</strong> El pájaro picotea los ojos de tus enemigos cuando elaboras una apertura. Hasta el inicio de tu siguiente turno, tus Golpes que dañen a una criatura a la que amenace tu pájaro también infligen [[/r {1d4}[persistente,sangrado]]]{1d4} @Compendium[pf2e.conditionitems.Persistent Damage]{Persistent Bleed Damage}, y el objetivo queda @Compendium[pf2e.conditionitems.Dazzled]{Dazzled} hasta que elimina el daño de sangrado. Si tu pájaro es ágil o salvaje, el daño persistente por sangrado aumenta a [[/r 2d4]]{2d4}.</p> <p\n<p><strong>Maniobra avanzada</strong> @Compendium[pf2e-animal-companions.AC-Advanced-Maneuvers.X4VjMfVVAjZjwcrT]{Flyby Attack}</p>"
        },
        "Wolf": {
            "name": "Wolf",
            "description": "<p>Tu compañero es un lobo u otra criatura canina, como un perro.</p> <p\n<p><strong>Tamaño</strong> Pequeño</p>\n<p><strong>Melee</strong> <span class=\"pf2-icon\">1</span> fauces (finesse), <strong>Daño</strong> 1d8 perforante</p>\n<p><strong>Str</strong> +2, <strong>Dex</strong> +3, <strong>Con</strong> +2, <strong>Int</strong> -4, <strong>Wis</strong> +1, <strong>Cha</strong> +0</p>\n<p><strong>Puntos de Golpe</strong> 6</p>\n<p><strong>Habilidad</strong> Supervivencia</p>\n<p><strong>Sentidos</strong> visión con poca luz, olfato (impreciso, 30 pies)</p> <p><strong>Habilidad</strong> de supervivencia.\n<p><strong>Velocidad</strong> 40 pies</p>\n<p><strong>Beneficio de Apoyo</strong> Tu lobo desgarra tendones con cada apertura. Hasta el comienzo de tu siguiente turno, tus Golpes que dañan a criaturas a las que tu lobo amenaza otorgan al objetivo una penalización de situación de -5 pies a sus Velocidades durante 1 minuto (-10 en caso de éxito crítico).</p> <p\n<p><strong>Maniobra avanzada</strong> @Compendium[pf2e-animal-companions.AC-Advanced-Maneuvers.xssFjTXqGlsaddvl]{Derribo}</p>"
        },
        "Shadow Hound": {
            "name": "Sombra Hound (Shadow Hound)",
            "description": "<p><strong>Acceso</strong> Eres un cazador de sombras.</p>\n<hr />\n<p>Tu compañero es una criatura canina emparentada con los habitantes del Plano de Sombra conocidos como mastines de sombra.</p> <p><strong>Tu compañero es una criatura canina emparentada con los habitantes del Plano de Sombra conocidos como mastines de sombra</strong>.\n<p><strong>Tamaño</strong>Pequeño</p>\n<p><strong>Melee</strong> <span class=\"pf2-icon\">1</span> fauces (finesse), <strong>Daño</strong> 1d8 perforante</p>\n<p><strong>Str </strong>+2, <strong>Dex </strong>+3, <strong>Con </strong>+1, <strong>Int </strong>-4, <strong>Wis </strong>+1, <strong>Cha </strong>+1</p>\n<p><strong>Puntos de Golpe</strong> 4</p>\n<p><strong>Habilidad</strong>Intimidación</p>\n<p><strong>Sentidos </strong>Visión en la oscuridad, olfato (impreciso) 30 pies</p>\n<p><strong>Velocidad</strong>30 pies</p>\n<p><strong>Beneficio de apoyo</strong> Tu sabueso de las Sombras envuelve a tus enemigos en sombras cuando dejas una abertura. Hasta el comienzo de tu siguiente turno, cuando dañas a una criatura con un Golpe y esa criatura está al alcance de tu sabueso de las sombras, tanto tú como tu sabueso de las sombras os convertís en @Compendium[pf2e.conditionitems.Concealed]{Concealed}# para la criatura hasta el final de tu siguiente turno.</p> <p>\n<p><strong>Maniobra avanzada</strong> @Compendium[pf2e-animal-companions.AC-Advanced-Maneuvers.EvuMVR9ut9wIHOtq]{Bay}</p>"
        },
        "Legchair": {
            "name": "Legchair",
            "description": "<p>Tu compañera es una extraña criatura, parecida a una silla con patas bestiales.</p> <p\n<p><strong>Tamaño</strong> Mediano o Grande</p>\n<p><strong>Melee</strong> <span class=\"pf2-icon\">1</span> pezuña (ágil), <strong>Daño</strong> 1d6 bludgeoning</p>\n<p><strong>Str</strong> +3, <strong>Dex</strong> +2, <strong>Con</strong> +2, <strong>Int</strong> -4, <strong>Wis</strong> +1, <strong>Cha</strong> +0</p>\n<p><strong>Puntos de Golpe</strong> 8</p>\n<p><strong>Habilidad</strong> Sigilo</p>\n<p><strong>Sentidos</strong> visión con poca luz, olfato (impreciso, 30 pies)</p> <p>Sentidos</strong>.\n<p><strong>Velocidad</strong> 40 pies</p>\n<p><strong>Especial</strong> montura</p>\n<p><strong>Beneficio de apoyo</strong> Tu silla de piernas mueve sus extremidades en el camino de los ataques enemigos. Obtienes menor cobertura de tu silla de piernas contra todos los ataques, no sólo aquellos en los que la silla de piernas estaría en medio.</p> <p>\n<p><strong>Maniobra avanzada</strong> @Compendium[pf2e-animal-companions.AC-Advanced-Maneuvers.lrchn6ROZcuKCg3C]{Retirada cuidadosa}</p>"
        },
        "Fiery Leopard": {
            "name": "Leopardo Llameante (Fiery Leopard)",
            "description": "<p><strong>Talla</strong> Pequeña</p>\n<p><strong>Melee</strong> <span class=\"pf2-icon\">1</span> fauces (finesse), <strong>Daño</strong> 1d6 perforante</p>\n<p><strong>Melee</strong> <span class=\"pf2-icon\">1</span> garra (ágil, finura), <strong>Daño</strong> 1d4 tajante</p>\n<p><strong>Str</strong> +2, <strong>Dex</strong> +3, <strong>Con</strong> +1, <strong>Int</strong> -4, <strong>Wis</strong> +2, <strong>Cha</strong> +0</p>\n<p><strong>Puntos de Golpe</strong> 4</p>\n<p><strong>Habilidad</strong> Sigilo</p>\n<p><strong>Sentidos</strong> visión con poca luz, olfato (impreciso, 30 pies)</p> <p>Sentidos</strong>.\n<p><strong>Velocidad</strong> 35 pies</p>\n<p><strong>Especial</strong> Tu gato inflige 1d4 puntos extra de daño de precisión contra objetivos con los pies planos.</p> <p>Especial</strong>.\n<p><strong>Beneficio de apoyo</strong> Tu gato desequilibra a tus enemigos cuando elaboras una apertura. Hasta el inicio de tu siguiente turno, tus Golpes que infligen daño a una criatura a la que amenaza tu gato hacen que el objetivo @Compendium[pf2e.conditionitems.Flat-Footed]{Piesplanos}# hasta el final de tu siguiente turno.</p>\n<p><strong>Maniobra avanzada</strong> @Compendium[pf2e-animal-companions.AC-Advanced-Maneuvers.U0J8J5ukmqnOskE8]{El gato se abalanza}</p>\n<p><strong>Immunidades</strong> fuego <strong>Debilidades</strong> frío 5</p>\n<p><strong>Ataques Flamígeros</strong> (fuego) Los ataques naturales del leopardo Llameante infligen 1 de daño de fuego (además del daño adicional infligido a objetivos con los pies planos). Este daño aumenta a 1d4 cuando el leopardo ardiente se convierte en un ágil o salvaje compañero animal.</p> <p>\n<p><strong>Pellejo llameante</strong> (fuego) Las criaturas que comienzan su turno agarrados por el leopardo llameante reciben 1d4 puntos de daño por fuego. Cualquiera que haga un intento de agarrar al Leopardo Llameante recibe 1d4 puntos de daño de fuego por cada intento.</p> <p><strong>Pelaje Ardiente</strong> (fuego)\n<p><strong>Resplandor ardiente</strong> El leopardo Llameante arroja una luz tenue en un radio de 10 pies que le otorga una penalización de circunstancia de -2 a los chequeos de Sigilo realizados de noche o en un entorno oscuro.</p> <p> <strong>Leopardo Llameante</strong>: </p> <p>El leopardo Llameante arroja una luz tenue en un radio de 10 pies que le otorga una penalización de circunstancia de -2 a los chequeos de Sigilo realizados de noche o en un entorno oscuro."
        },
        "Shark": {
            "name": "Shark",
            "description": "<p>Tu compañero es un tiburón de cualquier tipo, como un tiburón martillo, un tiburón blanco o un tiburón sierra.</p> <p\n<p><strong>Tamaño</strong> Pequeño</p>\n<p><strong>Melee</strong> <span class=\"pf2-icon\">1</span> mandíbulas, <strong>Daño</strong> 1d8 perforante</p>\n<p><strong>Str</strong> +3, <strong>Dex</strong> +2, <strong>Con</strong> +2, <strong>Int</strong> -4, <strong>Wis</strong> +1, <strong>Cha</strong> +0</p>\n<p><strong>Puntos de Golpe</strong> 6</p>\n<p><strong>Habilidad</strong> Sigilo</p>\n<p><strong>Sentidos</strong> olor a sangre, olor (impreciso, 60 pies)</p> <p><strong>Velocidad</strong>.\n<p><strong>Velocidad</strong> Nadar 40 pies</p>\n<p><strong>Especial</strong> El tiburón tiene el rasgo acuático. Su olor a sangre le permite oler la sangre en el agua hasta a 1 milla de distancia.</p> <p\n<p><strong>Beneficio de apoyo</strong> Cuando tu tiburón percibe la sangre, desgarra a tus enemigos. Hasta el comienzo de tu siguiente turno, cada vez que golpees a una criatura al alcance del tiburón con un Golpe e inflijas daño cortante o perforante, la criatura recibe [[/r {1d8}[cortante]]]{1d8 de daño cortante} del tiburón. Si tu tiburón es ágil o salvaje, el daño cortante aumenta a [[/r 2d8]]{2d8}.</p> <p>\n<p><strong>Maniobra avanzada</strong> @Compendium[pf2e-animal-companions.AC-Advanced-Maneuvers.F98ajoIakyOPEuwj]{Shred}</p>"
        },
        "Ghost": {
            "name": "Ghost",
            "description": "<p>Tu compañero es un fantasma, ligado a un objeto en tu posesión. Debido a este vínculo, tu compañero fantasma puede moverse más allá del área de una sola vivienda, pero es más fácil de perturbar que la mayoría de las criaturas incorpóreas. Un compañero fantasma puede estar formado por un humanoide, un animal u otra criatura. El fantasma no es sapiente y no puede hablar con los vivos.\n<p><strong>Tamaño</strong> Pequeño o mediano</p>\n<p><strong>Melee</strong> <span class=\"pf2-icon\">1</span> toque fantasmal (finesse, mágico), <strong>Daño</strong> 1d8 negativo (no aplica el modificador de Fuerza del fantasma)</p> <p><strong>Toque fantasmal</strong>.\n<p><strong>Str</strong> -5, <strong>Dex</strong> +3, <strong>Con</strong> +0, <strong>Int</strong> -4, <strong>Wis</strong> +1, <strong>Cha</strong> +2</p>\n<p><strong>Puntos de Golpe</strong> 4</p>\n<p><strong>Habilidad</strong> Sigilo</p>\n<p><strong>Sentidos</strong> visión en la oscuridad</p>\n<p><strong>Velocidad</strong> volar 20 pies</p>\n<p><strong>Especial</strong> @Compendium[pf2e-animal-companions.AC-Features.BjE6osOFlAishRbh]{Anchored Incorporeality}</p>\n<p><strong>Beneficio de Apoyo</strong> Tu fantasma espanta y asusta a tus enemigos mientras los atacas. Hasta el inicio de tu siguiente turno, si golpeas e infliges daño a una criatura en el alcance de tu fantasma, la criatura se convierte en @Compendium[pf2e.conditionitems.Frightened]{Frightened 1}##.</p> <p>\n<p><strong>Maniobra avanzada</strong> @Compendium[pf2e-animal-companions.AC-Advanced-Maneuvers.NMaMTiDB40L5O41S]{Asalto telecinético}</p>"
        },
        "Crocodile": {
            "name": "Cocodrilo (Crocodile)",
            "description": "<p>Tu compañero es un cocodrilo o un reptil cocodrilo similar, como un caimán o un aligátor.</p> <p>Tu compañero es un cocodrilo o un reptil cocodrilo similar, como un aligátor o un caimán.\n<p><strong>Tamaño</strong> Pequeño</p>\n<p><strong>Melee</strong> <span class=\"pf2-icon\">1</span> mandíbulas, <strong>Daño</strong> 1d8 perforante</p>\n<p><strong>Melee</strong> <span class=\"pf2-icon\">1</span> cola (ágil), <strong>Daño</strong> 1d6 contundente</p>\n<p><strong>Str</strong> +3, <strong>Dex</strong> +2, <strong>Con</strong> +2, <strong>Int</strong> -4, <strong>Wis</strong> +1, <strong>Cha</strong> +0</p>\n<p><strong>Puntos de Golpe</strong> 6</p>\n<p><strong>Habilidad</strong> Sigilo</p>\n<p><strong>Sentidos</strong> visión con poca luz</p>\n<p><strong>Velocidad</strong> 20 pies, nada 25 pies</p>\n<p><strong>Especial</strong> El cocodrilo puede aguantar la respiración durante unas 2 horas.</p>\n<p><strong>Beneficio de Apoyo</strong> Tu cocodrilo sujeta con sus mandíbulas a tu enemigo, negándose a soltarlo. Hasta el inicio de tu siguiente turno, si tu Golpe daña a una criatura que esté al alcance de tu cocodrilo, éste puede aferrarse a la criatura. Mientras esté así enganchado, el cocodrilo puede moverse junto al objetivo siempre que éste se mueva hasta el final de tu siguiente turno. Tu cocodrilo sólo puede aferrarse a una criatura de esta forma, y debe soltarla para realizar un Golpe de mandíbulas. Si el objetivo es más pequeño que el cocodrilo, sufre una penalización de circunstancia de -10 pies a sus Velocidades y no puede Volar mientras el cocodrilo esté enganchado.</p> <p\n<p><strong>Maniobra avanzada</strong> @Compendium[pf2e-animal-companions.AC-Advanced-Maneuvers.ttJ1CanrAuehoSV8]{Giro mortal}</p>"
        },
        "Undead Hand": {
            "name": "Mano de muerto viviente (Undead Hand)",
            "description": "<p>Tu compañero es una gran mano humanoide esquelética o carnosa, similar a una mano reptante gigante (Bestiario Pathfinder 2 56).</p> <p\n<p><strong>Tamaño</strong> Pequeño</p>\n<p><strong>Melee</strong> <span class=\"pf2-icon\">1</span> garra (ágil, finura), <strong>Daño</strong> 1d6 tajos</p>\n<p><strong>Str</strong> +2, <strong>Dex</strong> +2, <strong>Con</strong> +1, <strong>Int</strong> -5, <strong>Wis</strong> +1, <strong>Cha</strong> +0</p>\n<p><strong>Puntos de Golpe</strong> 4</p>\n<p><strong>Habilidad</strong> ninguna (descerebrado)</p>\n<p><strong>Sentidos</strong> visión en la oscuridad</p>\n<p><strong>Velocidad</strong> 20 pies, Trepar 20 pies</p>\n<p><strong>Especial</strong> Descerebrado</p>\n<p><strong>Beneficio de Apoyo</strong> La mano golpea con saña a los enemigos que atacas. Hasta el inicio de tu siguiente turno, cada vez que golpees a una criatura en el alcance de la mano con un Golpe, la criatura recibe [[/r {1d6}[bludgeoning]]]{1d6 de daño por golpe} de la mano. Si tu mano es ágil o salvaje, el daño contundente aumenta a [[/r 2d6]]{2d6}.</p> <p>\n<p><strong>Maniobra avanzada</strong> @Compendium[pf2e-animal-companions.AC-Advanced-Maneuvers.MQv67R7KBIrJkshN]{Agarra la garganta}</p>"
        },
        "Capybara": {
            "name": "Capybara",
            "description": "<p>Tu compañero animal es un capibara, un roedor gigante común en los bosques de Arcadia.</p> <p\n<p><strong>Tamaño</strong> Pequeño</p>\n<p><strong>Melee</strong> <span class=\"pf2-icon\">1</span> cabeza (ágil), <strong>Daño</strong> 1d6 bludgeoning</p>\n<p><strong>Str</strong> +2, <strong>Dex</strong> +2, <strong>Con</strong> +2, <strong>Int</strong> -4, <strong>Wis</strong> +2, <strong>Cha</strong> +0</p>\n<p><strong>Puntos de Golpe</strong> 6</p>\n<p><strong>Habilidad</strong> Supervivencia</p>\n<p><strong>Sentidos</strong> visión con poca luz, olfato (impreciso, 30 pies)</p> <p><strong>Habilidad</strong> de supervivencia.\n<p><strong>Velocidad</strong> 30 pies, Nadar 15 pies</p>\n<p><strong>Beneficio de Apoyo</strong> Tu carpincho te ayuda en la batalla. Ganas un bonificador +1 de circunstancia a tu próxima tirada de ataque para Golpear a un enemigo dentro del alcance de tu carpincho. El bonificador dura hasta la primera vez que lo usas o hasta el comienzo de tu siguiente turno, lo que ocurra primero.</p> <p\n<p><strong>Maniobra avanzada</strong> @Compendium[pf2e-animal-companions.AC-Advanced-Maneuvers.cpMkN79PdNci3nGp]{Espray distractor}</p>"
        },
        "Ulgrem-Lurann": {
            "name": "Ulgrem-Lurann",
            "description": "<p>Tu compañero es uno de los pocos miembros supervivientes de una especie anteriormente perdida, nacido de la última nidada de Ulgrem-Axaan. Como es tan joven, su inteligencia aún no se ha desarrollado, pero algún día se convertirá en una criatura muy inteligente. Un Ulgrem-Lurann tiene el rasgo bestia en lugar del rasgo animal, pero por lo demás funciona normalmente como un compañero animal.</p> <p\n<p><strong>Tamaño</strong> Mediano</p>\n<p><strong>Melee</strong> <span class=\"&quot;pf2-icon\\&quot;\">1</span> Fauces, <strong>Daño</strong> 1d8 perforante</p>\n<p><strong>Melee</strong> <span class=\"\\&quot;pf2-icon\\&quot;\">1</span> cola, <strong>Daño</strong> 1d6 golpes</p>\n<p><strong>Str</strong> +3, <strong>Dex</strong> +2, <strong>Con</strong> +2, <strong>Int</strong> -4, <strong>Wis</strong> 0, <strong>Cha</strong> +1</p>\n<p><strong>Puntos de Golpe</strong> 6</p>\n<p><strong>Habilidad</strong> Intimidación</p>\n<p><strong>Sentidos</strong> visión en la oscuridad</p>\n<p><strong>Velocidad</strong> 20 pies, nada 25 pies</p>\n<p><strong>Especial</strong> El Ulgrem-Lurann tiene el rasgo anfibio.</p> <p><strong>Especial</strong>.\n<p><strong>Beneficio de apoyo</strong> El Ulgrem-Lurann agarra a tu enemigo y lo electrocuta. Hasta el comienzo de tu siguiente turno, cada vez que golpees a una criatura en el alcance del Ulgrem-Lurann con un Golpe, la criatura recibe [[/r {1d4}[perforante]]]{1d4 de daño perforante} y [[/r {1d4}[electricidad]]]{1d4 de daño de electricidad} adicionales del Ulgrem-Lurann. Si el Ulgrem-Lurann es ágil o Salvajismo, el daño perforante y el daño de electricidad aumentan cada uno a [[/r 2d4]]{2d4}.</p> <p\n<p><strong>Maniobra avanzada</strong> @Compendium[pf2e-animal-companions.AC-Advanced-Maneuvers.Upr7u0KhPAIMOqXv]{Arrebatar y Zap}</p>"
        },
        "Rhinoceros": {
            "name": "Rinoceronte (Rhinoceros)",
            "description": "<p>Tu compañero es un rinoceronte o rinoceronte lanudo.</p> <p\n<p><strong>Tamaño</strong> Grande</p>\n<p><strong>Melee</strong> <span class=\"pf2-icon\">1</span> cuerno, <strong>Daño</strong> 1d8 perforante</p>\n<p><strong>Str</strong> +3, <strong>Dex</strong> +1, <strong>Con</strong> +3, <strong>Int</strong> -4, <strong>Wis</strong> +1, <strong>Cha</strong> +0</p>\n<p><strong>Puntos de Golpe</strong> 8</p>\n<p><strong>Habilidad</strong> Supervivencia</p>\n<p><strong>Sentidos</strong> olfato (impreciso, 30 pies)</p> <p><strong>Habilidad</strong> Supervivencia</strong>\n<p><strong>Velocidad</strong> 30 pies</p>\n<p><strong>Especial</strong> Montura</p>\n<p><strong>Beneficio de apoyo</strong> Tu rinoceronte balancea su pesada cabeza para desequilibrar a tu enemigo. La primera criatura dentro del alcance de tu rinoceronte a la que golpees e inflijas daño antes del inicio de tu siguiente turno se convierte en @Compendium[pf2e.conditionitems.Clumsy]{Torpe 1}### hasta el final de tu siguiente turno.</p> <p><strong>Equipo de apoyo</strong>.\n<p><strong>Maniobra avanzada</strong> @Compendium[pf2e-animal-companions.AC-Advanced-Maneuvers.JMHoCFb886K6dT1n]{Carga de rinoceronte}</p>"
        },
        "Snake": {
            "name": "Serpiente (Snake)",
            "description": "<p>Tu compañera es una serpiente constrictora, como una boa o una pitón.</p> <p\n<p><strong>Tamaño</strong> Pequeño</p>\n<p><strong>Melee</strong> <span class=\"pf2-icon\">1</span> Fauces (finesse), <strong>Daño</strong> 1d8 perforante</p>\n<p><strong>Str</strong> +3, <strong>Dex</strong> +3, <strong>Con</strong> +1, <strong>Int</strong> -4, <strong>Wis</strong> +1, <strong>Cha</strong> +0</p>\n<p><strong>Puntos de Golpe</strong> 6</p>\n<p><strong>Habilidad</strong> Sigilo</p>\n<p><strong>Sentidos</strong> visión con poca luz, olfato (impreciso, 30 pies)</p> <p>Sentidos</strong>.\n<p><strong>Velocidad</strong> 20 pies, Trepar 20 pies, Nadar 20 pies</p>\n<p><strong>Beneficio de Apoyo</strong> Tu serpiente sujeta a tus enemigos con sus Retorcer, interfiriendo en sus reacciones. Hasta el inicio de tu siguiente turno, cualquier criatura a la que amenace tu serpiente no puede usar reacciones desencadenadas por tus acciones a menos que su nivel sea superior al tuyo.</p> <p>\n<p><strong>Maniobra avanzada</strong> @Compendium[pf2e-animal-companions.AC-Advanced-Maneuvers.kKW68gi1FNJlNSOp]{Constrict}</p>"
        },
        "Ape": {
            "name": "Ape",
            "description": "<p>Tu compañero es un simio u otro primate.</p> <p\n<p><strong>Tamaño</strong> Pequeño</p>\n<p><strong>Melee</strong> <span class=\"pf2-icon\">1</span> puño, <strong>Daño</strong> 1d8 bludgeoning</p>\n<p><strong>Str</strong> +3, <strong>Dex</strong> +1, <strong>Con</strong> +2, <strong>Int</strong> -4, <strong>Wis</strong> +2, <strong>Cha</strong> +0</p>\n<p><strong>Puntos de Golpe</strong> 8</p>\n<p><strong>Habilidad</strong> Intimidación</p>\n<p><strong>Sentidos</strong> visión con poca luz</p>\n<p><strong>Velocidad</strong> 25 pies, Trepar 25 pies</p> <p>Velocidad</strong> 25 pies.\n<p><strong>Beneficio de apoyo</strong> Tu simio amenaza a tus enemigos con gruñidos amenazadores. Hasta el inicio de tu siguiente turno, si golpeas e infliges daño a una criatura en los confines de tu simio, la criatura se convierte en @Compendium[pf2e.conditionitems.Frightened]{Frightened 1}##.</p> <p>\n<p><strong>Maniobra avanzada</strong> @Compendium[pf2e-animal-companions.AC-Advanced-Maneuvers.0WtqP7Wei3AxHh5M]{Exhibición pavorosa}</p>"
        },
        "Vampiric Animal": {
            "name": "Vampiric Animal",
            "description": "<p>Tu compañero es un lobo, comadreja, zorro u otro depredador con colmillos y la sed de sangre de un vampiro. Suelen servir a los vampiros que comparten voluntariamente su sangre para atar al animal a sus caprichos vampíricos.</p> <p><strong>Su compañero es un lobo, una comadreja, un zorro u otro depredador con colmillos y sed de sangre de vampiro.\n<p><strong>Tamaño</strong> Pequeño o mediano</p>\n<p><strong>Melee</strong> <span class=\"pf2-icon\">1</span> Fauces (finesse), <strong>Daño</strong> 1d8 perforante</p>\n<p><strong>Str</strong> +2, <strong>Dex</strong> +2, <strong>Con</strong> +1, <strong>Int</strong> -4, <strong>Wis</strong> +1, <strong>Cha</strong> +0</p>\n<p><strong>Puntos de Golpe</strong> 4</p>\n<p><strong>Habilidad</strong> Supervivencia</p>\n<p><strong>Sentidos</strong> visión con poca luz, olfato (impreciso 30 pies)</p>\n<p><strong>Velocidad</strong> 30 pies</p>\n<p><strong>Especial</strong> Los compañeros animales vampíricos están particularmente sintonizados con el olor de la sangre. Si una criatura sufre daño persistente por sangrado, tu compañero animal vampírico puede oler a la criatura si se encuentra a 120 pies en lugar de 30 pies.</p> <p><strong>Especial</strong>.\n<p><strong>Beneficio de apoyo</strong> Cuando tu animal vampírico percibe sangre, se desgarra contra tus enemigos. Hasta el comienzo de tu siguiente turno, tus Golpes que dañen a una criatura en el alcance de tu animal vampírico también infligen [[/r {1d6}[persistente,sangrado]]]{1d6} @Compendium[pf2e.conditionitems.Persistent Damage]{Persistent Bleed Damage}. Si tu animal vampírico es ágil o salvaje, el daño persistente por sangrado aumenta a [[/r 2d6]]{2d6}.</p> <p\n<p><strong>Maniobra avanzada</strong> @Compendium[pf2e-animal-companions.AC-Advanced-Maneuvers.cVrW2GGLVpydj8h5]{Festín de sangre}</p>"
        },
        "Terror Bird": {
            "name": "Pájaro del Terror (Terror Bird)",
            "description": "<p>Tu compañero es un pájaro del terror, una gran especie de ave carnívora no voladora.</p> <p\n<p><strong>Tamaño</strong> Grande</p>\n<p><strong>Melee</strong> <span class=\"pf2-icon\">1</span> pico, <strong>Daño</strong> 1d8 perforante</p>\n<p><strong>Melee</strong> <span class=\"pf2-icon\">1</span> garra (ágil), <strong>Daño</strong> 1d6 perforante</p>\n<p><strong>Str</strong> +3, <strong>Dex</strong> +2, <strong>Con</strong> +2, <strong>Int</strong> -4, <strong>Wis</strong> +1, <strong>Cha</strong> +0</p>\n<p><strong>Puntos de Golpe</strong> 8</p>\n<p><strong>Habilidad</strong> Supervivencia</p>\n<p><strong>Sentidos</strong> visión con poca luz</p>\n<p><strong>Velocidad</strong> 40 pies</p>\n<p><strong>Especial</strong> montura</p>\n<p><strong>Beneficio de apoyo</strong> Tu pájaro del terror chilla a tus enemigos cuando elaboras una apertura. Hasta el inicio de tu siguiente turno, tus Golpes que infligen daño a una criatura dentro del alcance de tu pájaro del terror hacen que el objetivo @Compendium[pf2e.conditionitems.Flat-Footed]{Flat-Footed}## hasta el inicio de tu siguiente turno.</p> <p><strong>Montura de apoyo</strong>.\n<p><strong>Maniobra avanzada</strong> @Compendium[pf2e-animal-companions.AC-Advanced-Maneuvers.TCEQtO5DawzVAIyT]{Tearing Clutch}</p>"
        },
        "Tyrannosaurus": {
            "name": "Tyrannosaurus",
            "description": "<p>Tu compañero es un tiranosaurio, un alosaurio o un dinosaurio carnívoro similar de gran tamaño.</p> <p\n<p><strong>Tamaño</strong> Grande</p>\n<p><strong>Melee</strong> <span class=\"pf2-icon\">1</span> mandíbulas, <strong>Daño</strong> 1d8 perforante</p>\n<p><strong>Melee</strong> <span class=\"pf2-icon\">1</span> pie, <strong>Daño</strong> 1d6 bludgeoning</p>\n<p><strong>Str</strong> +3, <strong>Dex</strong> +1, <strong>Con</strong> +3, <strong>Int</strong> -4, <strong>Wis</strong> +1, <strong>Cha</strong> +0</p>\n<p><strong>Puntos de Golpe</strong> 8</p>\n<p><strong>Habilidad</strong> Intimidación</p>\n<p><strong>Sentidos</strong> visión con poca luz, olfato (impreciso, 30 pies)</p> <p>Sentidos</strong>.\n<p><strong>Velocidad</strong> 35 pies</p>\n<p><strong>Beneficio de Apoyo</strong> Tu tiranosaurio ruge y hace una exhibición temible cuando atacas, sobresaltando a tus enemigos. Hasta el inicio de tu siguiente turno, si golpeas e infliges daño a una criatura dentro del alcance de tu tiranosaurio, la criatura queda @Compendium[pf2e.conditionitems.Frightened]{Frightened 1}##.</p> <p>\n<p><strong>Maniobra avanzada</strong> @Compendium[pf2e-animal-companions.AC-Advanced-Maneuvers.yXw82Zd5nkcCUfRQ]{Overwhelm}</p>"
        },
        "Cat": {
            "name": "Cat",
            "description": "<p>Tu compañero es un gran felino, como un leopardo o un tigre.</p> <p\n<p><strong>Talla</strong> Pequeña</p>\n<p><strong>Melee</strong> <span class=\"pf2-icon\">1</span> fauces (finesse), <strong>Daño</strong> 1d6 perforante</p>\n<p><strong>Melee</strong> <span class=\"pf2-icon\">1</span> garra (ágil, finura), <strong>Daño</strong> 1d4 tajante</p>\n<p><strong>Str</strong> +2, <strong>Dex</strong> +3, <strong>Con</strong> +1, <strong>Int</strong> -4, <strong>Wis</strong> +2, <strong>Cha</strong> +0</p>\n<p><strong>Puntos de Golpe</strong> 4</p>\n<p><strong>Habilidad</strong> Sigilo</p>\n<p><strong>Sentidos</strong> visión con poca luz, olfato (impreciso, 30 pies)</p> <p>Sentidos</strong>.\n<p><strong>Velocidad</strong> 35 pies</p>\n<p><strong>Especial</strong> Tu gato inflige 1d4 puntos extra de daño de precisión contra objetivos con los pies planos.</p> <p>Especial</strong>.\n<p><strong>Beneficio de apoyo</strong> Tu gato desequilibra a tus enemigos cuando elaboras una apertura. Hasta el inicio de tu siguiente turno, tus Golpes que infligen daño a una criatura a la que amenaza tu gato hacen que el objetivo @Compendium[pf2e.conditionitems.Flat-Footed]{Piesplanos}# hasta el final de tu siguiente turno.</p>\n<p><strong>Maniobra avanzada</strong> @Compendium[pf2e-animal-companions.AC-Advanced-Maneuvers.U0J8J5ukmqnOskE8]{El gato se abalanza}</p>"
        },
        "Zombie Carrion Bird": {
            "name": "Zombie Carrion Bird",
            "description": "<p>Tu compañero es el cadáver zombificado de un ave carroñera de gran tamaño, como un buitre o un cuervo, que subsiste a base de carne.</p>\n<p><strong>Tamaño</strong> Pequeño</p>\n<p><strong>Melee</strong> <span class=\"pf2-icon\">1</span> fauces, <strong>Daño</strong> 1d8 perforante</p>\n<p><strong>Str</strong> +2, <strong>Dex</strong> +1, <strong>Con</strong> +3, <strong>Int</strong> -5, <strong>Wis</strong> +0, <strong>Cha</strong> +0</p>\n<p><strong>Puntos de Golpe</strong> 6</p>\n<p><strong>Habilidad</strong> ninguna (descerebrado)</p> <p><strong>Habilidad</strong>.\n<p><strong>Sentidos</strong> visión en la oscuridad</p>\n<p><strong>Velocidad</strong> 10 pies, volar 30 pies</p>\n<p><strong>Especial</strong> Descerebrado</p>\n<p><strong>Beneficio de Apoyo</strong> El zombi emite un aura de putrefacción, haciendo que las heridas supuren. Hasta el comienzo de tu siguiente turno, cada vez que golpees e inflijas daño a una criatura que esté a menos de 3 metros del ave carroñera zombi, la criatura recibe 1d6 puntos de daño adicionales mientras la herida supura. Si tu ave carroñera es ágil o salvaje, el daño aumenta a [[/r 2d6]]{2d6}. Este es un efecto de enfermedad y nigromancia.</p> <p>\n<p><strong>Maniobra avanzada</strong> @Compendium[pf2e-animal-companions.AC-Advanced-Maneuvers.9o7NwxGqohpa9M7r]{Pica la carne}</p>"
        },
        "Camel": {
            "name": "Camel",
            "description": "<p>Tu compañero es un camello o una llama.</p> <p\n<p><strong>Talla</strong> Mediana o Grande</p>\n<p><strong>Melee</strong> <span class=\"pf2-icon\">1</span> fauces, <strong>Daño</strong> 1d6 perforante</p>\n<p><strong>Str</strong> +3, <strong>Dex</strong> +2, <strong>Con</strong> +2, <strong>Int</strong> -4, <strong>Wis</strong> +1, <strong>Cha</strong> +0</p>\n<p><strong>Puntos de Golpe</strong> 8</p>\n<p><strong>Habilidad</strong> Supervivencia</p>\n<p><strong>Sentidos</strong> visión con poca luz, olfato (impreciso, 30 pies)</p> <p><strong>Habilidad</strong> de supervivencia.\n<p><strong>Velocidad</strong> 35 pies</p>\n<p><strong>Especial</strong> montura; tu camello ignora los efectos nocivos del frío o el calor leves, severos y extremos, seleccionados al obtener el acompañante</p> <p>Especial</strong> montura; tu camello ignora los efectos nocivos del frío o el calor leves, severos y extremos, seleccionados al obtener el acompañante</p> <p>Especial</strong> montura.\n<p><strong>Beneficio de apoyo</strong> El camello realiza un ataque a distancia para escupir un largo hilo de saliva a un enemigo en un radio de 3 metros. Si acierta, el enemigo queda @Compendium[pf2e.conditionitems.Dazzled]{Dazzled}# durante 1 asalto.</p> <p>\n<p><strong>Maniobra avanzada</strong> @Compendium[pf2e-animal-companions.AC-Advanced-Maneuvers.PAXJgysWqv3T0tTD]{Sand Stride}</p>"
        },
        "Scorpion": {
            "name": "Scorpion",
            "description": "<p>Tu compañero es una de las varias especies de escorpión gigante.</p> <p\n<p><strong>Tamaño</strong> Pequeño</p>\n<p><strong>Melee</strong> <span class=\"pf2-icon\">1</span> aguijón, <strong>Daño</strong> 1d6 perforante más veneno (ver Especial)</p> <p><strong>Pequeño</strong>.\n<p><strong>Melee</strong> <span class=\"pf2-icon\">1</span> tenaza (ágil), <strong>Daño</strong> 1d6 cortante</p>\n<p><strong>Str</strong> +3, <strong>Dex</strong> +3, <strong>Con</strong> +1, <strong>Int</strong> -4, <strong>Wis</strong> +1, <strong>Cha</strong> +0</p>\n<p><strong>Puntos de Golpe</strong> 6</p>\n<p><strong>Habilidad</strong> Sigilo</p>\n<p><strong>Sentidos</strong> visión en la oscuridad</p>\n<p><strong>Velocidad</strong> 30 pies</p>\n<p><strong>Especial</strong> El ataque con aguijón del escorpión inflige un [[/r {1d4}[veneno]]]{1d4 de daño por veneno} adicional o [[/r {2d4}[veneno]]]{2d4 de daño por veneno} si el escorpión es un Comparo especializado.</p>\n<p><strong>Beneficio de apoyo</strong> Tu escorpión gotea veneno de su aguijón cuando elaboras una apertura. Hasta el inicio de tu siguiente turno, tus Golpes que dañen a una criatura en el alcance de tu escorpión también infligen [[/r {1d6}[persistente,veneno]]]{1d6} @Compendium[pf2e.conditionitems.Persistent Damage]{Persistent poison Damage}. Si tu escorpión es ágil o salvaje, el daño persistente de veneno aumenta a [[/r 2d6]]{2d6}.</p> <p\n<p><strong>Maniobra avanzada</strong> @Compendium[pf2e-animal-companions.AC-Advanced-Maneuvers.7H8wqKtsAaSgyLyp]{Agarra y pica}</p>"
        },
        "Pangolin": {
            "name": "Pangolin",
            "description": "<p>Tu compañero es un pangolín especialmente grande, como un ugvashi de Vudra.</p> <p\n<p><strong>Tamaño</strong> Mediano</p>\n<p><strong>Melee</strong> <span class=\"pf2-icon\">1</span> cuerpo, <strong>Daño</strong> 1d8 bludgeoning</p>\n<p><strong>Melee</strong> <span class=\"pf2-icon\">1</span> garra (ágil), <strong>Daño</strong> 1d6 tajo</p>\n<p><strong>Str</strong> +3, <strong>Dex</strong> +2, <strong>Con</strong> +2, <strong>Int</strong> -4, <strong>Wis</strong> +1, <strong>Cha</strong> +0</p>\n<p><strong>Puntos de Golpe</strong> 8</p>\n<p><strong>Habilidad</strong> Supervivencia</p>\n<p><strong>Sentidos</strong> visión con poca luz</p>\n<p><strong>Velocidad</strong> 25 pies</p>\n<p><strong>Beneficio de Apoyo</strong> Tu pangolín desgarra a tus enemigos con sus placas dentadas. Hasta el inicio de tu siguiente turno, tus Golpes que dañen a una criatura en el alcance de tu pangolín también infligen [[/r {1d6}[persistente,sangrado]]]{1d6} @Compendium[pf2e.conditionitems.Persistent Damage]{Daño persistente por sangrado}. Si tu pangolín es ágil o salvaje, el daño persistente por sangrado aumenta a [[/r 2d6]]{2d6}.</p> <p\n<p><strong>Maniobra avanzada</strong> @Compendium[pf2e-animal-companions.AC-Advanced-Maneuvers.pMPtswKNokDNyYR2]{Rizo defensivo}</p>"
        },
        "Monitor Lizard": {
            "name": "Lagarto Monitor (Monitor Lizard)",
            "description": "<p>Tu compañero es un lagarto de extremidades fornidas y cuerpo largo, casi serpenteante.</p> <p\n<p><strong>Talla</strong> Mediana</p>\n<p><strong>Melee</strong> <span class=\"pf2-icon\">a </span>las Fauces, <strong>Daño</strong> 1d8 perforante</p>\n<p><strong>Str</strong> +3, <strong>Dex</strong> +2, <strong>Con</strong> +2, <strong>Int</strong> -4, <strong>Wis</strong> +1, <strong>Cha</strong> +0</p>\n<p><strong>Puntos de Golpe</strong> 8</p>\n<p><strong>Habilidad</strong> Supervivencia</p>\n<p><strong>Sentidos</strong> visión con poca luz, olfato (impreciso) 30 pies</p>\n<p><strong>Velocidad</strong> 30 pies</p>\n<p><strong>Especial</strong> montura</p>\n<p><strong>Beneficio de apoyo</strong> El lagarto monitor distrae a un oponente adyacente con chasquidos de mandíbulas y movimientos rápidos. Hasta el inicio de tu siguiente turno, si tu Golpe daña a un enemigo, cada vez que el enemigo intente una acción con el rasgo manipular hasta el final de tu siguiente turno, debe intentar un chequeo plano DC 5. Si falla, la acción se desactiva. Si falla, la acción es perturbada.\n<p><strong>Maniobra avanzada</strong> @Compendium[pf2e-animal-companions.AC-Advanced-Maneuvers.uR3j6TAJFeOVUHpY]{Embestida}</p>"
        },
        "Gibtas": {
            "name": "Gibtas",
            "description": "<p>Tu compañero es un gibtas.</p>\n<p><strong>Tamaño</strong> Pequeño</p>\n<p><strong>Melee</strong> <span class=\"pf2-icon\">1</span> mandíbulas, <strong>Daño</strong> 1d8 perforante</p>\n<p><strong>Melee</strong> <span class=\"pf2-icon\">1</span> garra (ágil), <strong>Daño</strong> 1d6 cortante</p>\n<p><strong>Str</strong> +3, <strong>Dex</strong> +2, <strong>Con</strong> +2, <strong>Int</strong> -4, <strong>Wis</strong> +1, <strong>Cha</strong> +0</p>\n<p><strong>Puntos de Golpe</strong> 8</p>\n<p><strong>Habilidad</strong> Intimidación</p>\n<p><strong>Sentidos</strong> visión con poca luz, olfato (impreciso, 30 pies)</p> <p>Sentidos</strong>.\n<p><strong>Velocidad</strong> 35 pies</p>\n<p><strong>Beneficio de Apoyo</strong> Tus gibtas mutilan a tus enemigos cuando elaboras una apertura. Hasta el comienzo de tu siguiente turno, cada vez que golpeas a una criatura en el alcance de las gibtas con un Golpe, la criatura recibe [[/r {1d8}[cortante]]]{1d8 de daño cortante} de las gibtas. Si tu gibtas es ágil o salvaje, el daño cortante aumenta a [[/r 2d8]]{2d8}.</p> <p>\n<p><strong>Maniobra avanzada</strong> @Compendium[pf2e-animal-companions.AC-Advanced-Maneuvers.Uv49tQCwUUjaMCj5]{Bouncing Slam}</p>"
        },
        "Skeletal Bird of Prey": {
            "name": "Skeletal Bird of Prey",
            "description": "<p>Tu compañero es el esqueleto de un ave de presa como un halcón o un búho.</p> <p\n<p><strong>Tamaño</strong> Pequeño</p>\n<p><strong>Melee</strong> <span class=\"pf2-icon\">1</span> fauces (finesse), <strong>Daño</strong> 1d6 perforante</p>\n<p><strong>Melee</strong> <span class=\"pf2-icon\">1</span> garra (ágil, finura), <strong>Daño</strong> 1d4 tajante</p>\n<p><strong>Str</strong> +2, <strong>Dex</strong> +3, <strong>Con</strong> +1, <strong>Int</strong> -5, <strong>Wis</strong> +0, <strong>Cha</strong> +0</p>\n<p><strong>Puntos de Golpe</strong> 4</p>\n<p><strong>Habilidad</strong> ninguna (descerebrado)</p> <p><strong>Habilidad</strong>.\n<p><strong>Sentidos</strong> visión en la oscuridad</p>\n<p><strong>Velocidad</strong> 10 pies, volar 50 pies</p>\n<p><strong>Especial</strong> Descerebrado</p>\n<p><strong>Beneficio de Apoyo</strong> El pájaro aletea y desequilibra a tu enemigo. Hasta el inicio de tu siguiente turno, cuando dañas a una criatura en el alcance del pájaro con un Golpe, esa criatura se vuelve @Compendium[pf2e.conditionitems.Clumsy]{Torpe 1}## hasta el final de tu siguiente turno.</p> <p><strong>Beneficio de apoyo</strong>.\n<p><strong>Maniobra avanzada</strong> @Compendium[pf2e-animal-companions.AC-Advanced-Maneuvers.ow3S5zhS51Nj8tsI]{Unnerving Screech}</p>"
        },
        "Elephant": {
            "name": "Elefante (Elephant)",
            "description": "<p>Tu compañero es un elefante o un mamut.</p> <p\n<p><strong>Talla</strong> Grande</p>\n<p><strong>Melee</strong> <span class=\"pf2-icon\">1</span> colmillo, <strong>Daño</strong> 1d8 perforante</p>\n<p><strong>Melee</strong> <span class=\"pf2-icon\">1</span> pie, <strong>Daño</strong> 1d6 contundente</p>\n<p><strong>Str</strong> +3, <strong>Dex</strong> +1, <strong>Con</strong> +2, <strong>Int</strong> -4, <strong>Wis</strong> +2, <strong>Cha</strong> +0</p>\n<p><strong>Puntos de Golpe</strong> 8</p>\n<p><strong>Habilidad</strong> Intimidación</p>\n<p><strong>Sentidos</strong> visión con poca luz, olfato (impreciso, 30 pies)</p> <p>Sentidos</strong>.\n<p><strong>Velocidad</strong> 35 pies</p>\n<p><strong>Especial</strong> montura</p>\n<p><strong>Beneficio de apoyo</strong> Tu elefante trompetea ruidosamente y amenaza a tu enemigo. La primera criatura al alcance de tu elefante a la que golpees e inflijas daño antes del comienzo de tu siguiente turno tiene dificultades para oír ya que le zumban los oídos por el ruido, sufriendo una penalización de situación de -4 a los chequeos de Percepción puramente auditivos hasta el final de tu siguiente turno.</p> <p><strong>Montura</strong>.\n<p><strong>Maniobra avanzada</strong> @Compendium[pf2e-animal-companions.AC-Advanced-Maneuvers.oYEXImMSzg0eDqzR]{Agarrar con la trompa}</p>"
        },
        "Cave Gecko": {
            "name": "Cave Gecko",
            "description": "<p>Tu compañero es un lagarto de patas pegajosas como un gecko o un anole.</p> <p\n<p><strong>Tamaño</strong> Pequeño</p>\n<p><strong>Melee</strong> <span class=\"pf2-icon\">a</span> las fauces (finesse), <strong>Daño</strong> 1d6 perforante</p>\n<p><strong>Str</strong> +2, <strong>Dex</strong> +3, <strong>Con</strong> +1, <strong>Int</strong> -4, <strong>Wis</strong> +2, <strong>Cha</strong> +0</p>\n<p><strong>Puntos de Golpe</strong> 6</p>\n<p><strong>Habilidad</strong> Sigilo</p>\n<p><strong>Sentidos</strong> visión con poca luz, olfato (impreciso) 30 pies</p>\n<p><strong>Velocidad</strong> 25 pies, Trepar 25 pies</p>\n<p><strong>Beneficio de apoyo</strong> Tu salamanquesa de las cavernas te ayuda a mantenerte a pie, apoyándose en ti y sosteniéndote mientras maniobras a tu oponente. Hasta el final de tu siguiente turno, mientras estés adyacente a tu salamanquesa de las cavernas, si haces un intento de Desarmar, Empujar o Derribar a un oponente y obtienes un fallo crítico, obtienes un fallo en su lugar.</p> <p><strong>Beneficio de Apoyo</strong>\n<p><strong>Maniobra avanzada</strong> @Compendium[pf2e-animal-companions.AC-Advanced-Maneuvers.q0Vh2V6KlzdMi1Pv]{Tirón de lengua}</p>"
        },
        "Bear": {
            "name": "Oso (Bear)",
            "description": "<p>Tu compañero es un oso negro, grizzly, polar o de otro tipo.</p> <p\n<p><strong>Talla</strong> Pequeña</p>\n<p><strong>Melee</strong> <span class=\"pf2-icon\">1</span> mandíbulas, <strong>Daño</strong> 1d8 perforante</p>\n<p><strong>Melee</strong> <span class=\"pf2-icon\">1</span> garra (ágil), <strong>Daño</strong> 1d6 cortante</p>\n<p><strong>Str</strong> +3, <strong>Dex</strong> +2, <strong>Con</strong> +2, <strong>Int</strong> -4, <strong>Wis</strong> +1, <strong>Cha</strong> +0</p>\n<p><strong>Puntos de Golpe</strong> 8</p>\n<p><strong>Habilidad</strong> Intimidación</p>\n<p><strong>Sentidos</strong> visión con poca luz, olfato (impreciso, 30 pies)</p> <p>Sentidos</strong>.\n<p><strong>Velocidad</strong> 35 pies</p>\n<p><strong>Beneficio de apoyo</strong> Tu oso piquetea a tus enemigos cuando elaboras una apertura. Hasta el comienzo de tu siguiente turno, cada vez que golpees a una criatura en el alcance del oso con un Golpe, la criatura recibe [[/r {1d8}[cuchillada]]]{1d8 de daño cortante} del oso. Si tu oso es ágil o salvaje, el daño cortante aumenta a [[/r 2d8]]{2d8}.</p> <p>\n<p><strong>Maniobra avanzada</strong> @Compendium[pf2e-animal-companions.AC-Advanced-Maneuvers.oCgdnQP5bMDD02YC]{Abrazo del oso}</p>"
        },
        "Cave Pterosaur": {
            "name": "Cave Pterosaur",
            "description": "<p>Tu compañero es una criatura prehistórica voladora, como un dimorfodonte o un pterodáctilo, que se ha adaptado a la vida en las bóvedas de las cavernas bajo tierra.</p> <p><strong>Pterosaurio de las cavernas</strong>.\n<p><strong>Tamaño</strong> Pequeño</p>\n<p><strong>Melee</strong> 1 pico (finesse), <strong>Daño</strong> 1d6 perforante</p>\n<p><strong>Melee</strong> <span class=\"pf2-icon\">1</span> garra (ágil, finura), <strong>Daño</strong> 1d4 cortante</p>\n<p><strong>Str</strong> +2, <strong>Dex</strong> +3, <strong>Con</strong> +1, <strong>Int</strong> -4, <strong>Wis</strong> +2, <strong>Cha</strong> +0</p>\n<p><strong>Puntos de Golpe</strong> 4</p>\n<p><strong>Habilidad</strong> Latrocinio</p>\n<p><strong>Sentidos</strong> visión en la oscuridad</p>\n<p><strong>Velocidad</strong> 10 pies, volar 60 pies</p> <p><strong>Velocidad</strong>.\n<p><strong>Beneficio de Apoyo</strong> Tu pterosaurio expande sus alas y hace movimientos de aleteo de distracción. Cualquier criatura que obtendría cobertura menor del pterosaurio gana cobertura estándar en su lugar.</p> <p\n<p><strong>Maniobra avanzada</strong> @Compendium[pf2e-animal-companions.AC-Advanced-Maneuvers.7C9iFWBpEOJs4Uo2]{Pterosaur Swoop}</p>"
        },
        "Vulture": {
            "name": "Buitre (Vulture)",
            "description": "<p>Tu compañero es un buitre, un cóndor u otra ave carroñera de gran tamaño.</p> <p>Tu compañero es un buitre, un cóndor u otra ave carroñera de gran tamaño.\n<p><strong>Tamaño</strong> Pequeño</p>\n<p><strong>Melee</strong> <span class=\"pf2-icon\">1</span> fauces (finesse), <strong>Daño</strong> 1d8 perforante</p>\n<p><strong>Str</strong> +2, <strong>Dex</strong> +2, <strong>Con</strong> +2, <strong>Int</strong> -4, <strong>Wis</strong> +2, <strong>Cha</strong> +0</p>\n<p><strong>Puntos de Golpe</strong> 6</p>\n<p><strong>Habilidad</strong> Supervivencia</p>\n<p><strong>Sentidos</strong> visión con poca luz, olfato (impreciso, 30 pies)</p> <p><strong>Habilidad</strong> de supervivencia.\n<p><strong>Velocidad</strong> 10 pies, volar 45 pies</p>\n<p><strong>Especial</strong> Tu buitre obtiene una bonificación de situación a todas las salvaciones contra enfermedades, y si obtiene un óxito en una salvación contra una enfermedad, el resultado es un óxito crótico en su lugar.\n<p><strong>Beneficio de apoyo</strong> El buitre tiene arcadas y vomita sobre un enemigo en un radio de 3 metros. Hasta el inicio de tu siguiente turno, si impactas e infliges daño al objetivo, éste debe tener éxito en una salvación de Fortaleza o queda @Compendium[pf2e.conditionitems.Sickened]{Enfermo 1}# (@Compendium[pf2e.conditionitems.Sickened]{Enfermo 2}## en caso de fallo crítico). La DC de la salvación de Fortaleza es 12 (o 14, si el buitre es un compañero animal especializado) + tu nivel + el modificador de Constitución del buitre.</p> <p\n<p><strong>Maniobra avanzada</strong> @Compendium[pf2e-animal-companions.AC-Advanced-Maneuvers.g4JEtCnKXyY4LJpm]{Fiesta del Caído}</p>"
        },
        "Skeletal Constrictor": {
            "name": "Skeletal Constrictor",
            "description": "<p>Tu compañero es el esqueleto de una serpiente constrictora como una boa o una pitón. Las luces rojas arden en lo más profundo de sus cuencas oculares.</p> <p>Su compañero es un esqueleto de serpiente constrictora, como una boa o una pitón.\n<p><strong>Tamaño</strong> Pequeño</p>\n<p><strong>Melee</strong> <span class=\"pf2-icon\">1</span> Fauces (finesse), <strong>Daño</strong> 1d8 perforante</p>\n<p><strong>Str</strong> +2, <strong>Dex</strong> +2, <strong>Con</strong> +1, <strong>Int</strong> -5, <strong>Wis</strong> +1, <strong>Cha</strong> +0</p>\n<p><strong>Puntos de Golpe</strong> 4</p>\n<p><strong>Habilidad</strong> ninguna (descerebrado)</p>\n<p><strong>Sentidos</strong> visión en la oscuridad</p>\n<p><strong>Velocidad</strong> 20 pies, Trepar 20 pies, Nadar 20 pies</p>\n<p><strong>Especial</strong> Descerebrado</p>\n<p><strong>Beneficio de Apoyo</strong> Tu serpiente se balancea, cautivando a un enemigo. Elige una criatura a 20 pies de la constrictora que pueda verla. Hasta el inicio de tu siguiente turno, tus Golpes que inflijan daño a la criatura elegida hacen que el objetivo @Compendium[pf2e.conditionitems.Flat-Footed]{Piesplanos}# hasta el final de tu siguiente turno.</p> <p><strong>Educación</strong>.\n<p><strong>Maniobra avanzada</strong> @Compendium[pf2e-animal-companions.AC-Advanced-Maneuvers.AH3kNbdGLYaRjVAr]{Constricción ósea}</p>"
        },
        "Zombie Mount": {
            "name": "Zombie Mount",
            "description": "<p>Tu acompañante es el cadáver putrefacto y reanimado de un caballo, camello o animal de monta similar.</p> <p\n<p><strong>Tamaño</strong> Grande</p>\n<p><strong>Melee</strong> <span class=\"pf2-icon\">1</span> pezuña, <strong>Daño</strong> 1d8 golpes</p>\n<p><strong>Str</strong> +2, <strong>Dex</strong> +1, <strong>Con</strong> +3, <strong>Int</strong> -5, <strong>Wis</strong> +0, <strong>Cha</strong> +0</p>\n<p><strong>Puntos de Golpe</strong> 8</p>\n<p><strong>Habilidad</strong> ninguna (ver Especial)</p>\n<p><strong>Sentidos</strong> visión en la oscuridad</p>\n<p><strong>Velocidad</strong> 30 pies</p>\n<p><strong>Especial</strong> descerebrado, montura</p>\n<p><strong>Beneficio de apoyo</strong> Tu montura zombi mastica a tus enemigos. Hasta el comienzo de tu siguiente turno, cada vez que Golpeas mientras montas en la montura zombi e impactas a una criatura en el alcance de la montura zombi, la criatura recibe [[/r {1d4}[contundente]]]{1d4 de daño contundente} de la montura zombi. Si tu montura zombi es ágil o salvaje, el daño contundente aumenta a [[/r 2d4]]{2d4}. Este beneficio se basa en un caballo o camello zombi, pero podría infligir daño perforante si tu montura tiene dientes afilados.</p> <p\n<p><strong>Maniobra avanzada</strong> @Compendium[pf2e-animal-companions.AC-Advanced-Maneuvers.h1Rldre8WVjUR5XO]{Galope repugnante}</p>"
        },
        "Triceratops": {
            "name": "Triceratops",
            "description": "<p>Tu compañero es un triceratops u otro dinosaurio acorazado. Si es necesario, cambia el ataque del cuerno y el tipo de daño por un ataque apropiado para el dinosaurio (por ejemplo, un anquilosaurio tendría un ataque de cola que inflige daño contundente).</p> <p\n<p><strong>Tamaño</strong> Grande</p>\n<p><strong>Melee</strong> <span class=\"pf2-icon\">1</span> cuerno, <strong>Daño</strong> 1d8 perforante</p>\n<p><strong>Melee</strong> <span class=\"pf2-icon\">1</span> pie, <strong>Daño</strong> 1d6 contundente</p>\n<p><strong>Str</strong> +3, <strong>Dex</strong> +1, <strong>Con</strong> +2, <strong>Int</strong> -4, <strong>Wis</strong> +2, <strong>Cha</strong> +0</p>\n<p><strong>Puntos de Golpe</strong> 8</p>\n<p><strong>Habilidad</strong> Intimidación</p>\n<p><strong>Sentidos</strong> visión con poca luz, olfato (impreciso, 30 pies)</p> <p>Sentidos</strong>.\n<p><strong>Velocidad</strong> 25 pies</p>\n<p><strong>Especial</strong> montura</p>\n<p><strong>Beneficio de apoyo</strong> Tu triceratops perfora @Compendium[pf2e.conditionitems.Prone]{Prone} objetivos a su paso. Hasta el inicio de tu siguiente turno, tus Golpes que dañen a una criatura boca abajo en el alcance de tu triceratops también infligen [[/r {1d8}[persistente,sangrado]]]{1d8} @Compendium[pf2e.conditionitems.Persistent Damage]{Daño persistente por sangrado}. Si tu triceratops es ágil o salvaje, el daño persistente por sangrado aumenta a [[/r 2d8]]{2d8}.</p> <p\n<p><strong>Maniobra avanzada</strong> @Compendium[pf2e-animal-companions.AC-Advanced-Maneuvers.H1ElYt6KovGYGzLD]{Lumbering Derribo}</p>"
        },
        "Arboreal Sapling": {
            "name": "Plantón arborícola (pl. -es) (Arboreal Sapling)",
            "description": "<p>Tu compañero es un árbol andante, primo de los grandes custodios arborales y regentes. Un árbol arbóreo tiene el rasgo de planta en lugar del rasgo de animal, pero por lo demás funciona normalmente como un compañero animal. Normalmente sólo los seleccionan los druidas de la orden animal que también son miembros de la orden de la hoja.</p> <p\n<p><strong>Acceso</strong> Eres miembro de la orden de la hoja.</p> <p\n<p><strong>Tamaño</strong> Pequeño</p>\n<p><strong>Melee</strong>&nbsp;<span class=\"pf2-icon\">1</span> rama, <strong>Damag</strong>e 1d8 bludgeoning</p>\n<p><strong>Str</strong> +3, <strong>Dex</strong> +1, <strong>Con</strong> +2, <strong>Int</strong> -4, <strong>Wis</strong> +2, <strong>Cha</strong> +0</p>\n<p><strong>Puntos de Golpe</strong> 8</p>\n<p><strong>Habilidad</strong> Sigilo</p>\n<p><strong>Sentidos</strong> visión con poca luz</p>\n<p><strong>Velocidad</strong> 25 pies</p> <p><strong>Velocidad</strong>.\n<p><strong>Beneficio de apoyo</strong> Tu retoño arbóreo echa raíces alrededor de tu enemigo, Obstaculizando su movimiento. Hasta el comienzo de tu siguiente turno, si golpeas e infliges daño a una criatura en los confines de tu árbol arbóreo, la primera casilla a la que se mueva la criatura después de recibir ese daño es terreno difícil.</p> <p><strong>Beneficio de apoyo</strong>.\n<p><strong>Maniobra avanzada</strong> @Compendium[pf2e-animal-companions.AC-Advanced-Maneuvers.FKh7ZMNyKxgnV7kI]{Arrojar roca}</p>"
        },
        "Blood Wolf": {
            "name": "Blood Wolf",
            "description": "<p>Tu compañero es un lobo de sangre parcialmente transformado.</p> <p\n<p><strong>Tamaño</strong> Pequeño</p>\n<p><strong>Melee</strong> <span class=\"pf2-icon\">1</span> fauces (finesse), <strong>Daño</strong> 1d8 perforante</p>\n<p><strong>Str</strong> +2, <strong>Dex</strong> +3, <strong>Con</strong> +2, <strong>Int</strong> -4, <strong>Wis</strong> +1, <strong>Cha</strong> +0</p>\n<p><strong>Puntos de Golpe</strong> 8</p>\n<p><strong>Habilidad</strong> Intimidación</p>\n<p><strong>Sentidos</strong> visión en la oscuridad, olfato (impreciso, 30 pies)</p> <p>Sentidos</strong>.\n<p><strong>Velocidad</strong> 40 pies</p>\n<p><strong>Beneficio de Apoyo</strong> Tu lobo desgarra tendones con cada apertura. Hasta el comienzo de tu siguiente turno, tus Golpes que dañan a criaturas que tu lobo amenaza dan al objetivo una penalización de situación de -5 pies a sus Velocidades durante 1 minuto (-10 en un éxito crítico).</p> <p\n<p><strong>Maniobra avanzada</strong> @Compendium[pf2e-animal-companions.AC-Advanced-Maneuvers.xssFjTXqGlsaddvl]{Derribo}</p>"
        },
        "Ankylosaurus": {
            "name": "Ankylosaurus",
            "description": "<p>Tu compañero es un anquilosaurio u otro dinosaurio acorazado.</p> <p\n<p><strong>Tamaño</strong> Grande</p>\n<p><strong>Melee</strong> <span class=\"pf2-icon\">1</span> cola, <strong>Daño</strong> 1d8 bludgeoning</p>\n<p><strong>Melee</strong> <span class=\"pf2-icon\">1</span> pie, <strong>Daño</strong> 1d6 golpes</p>\n<p><strong>Str</strong> +3, <strong>Dex</strong> +1, <strong>Con</strong> +2, <strong>Int</strong> -4, <strong>Wis</strong> +2, <strong>Cha</strong> +0</p>\n<p><strong>Puntos de Golpe</strong> 8</p>\n<p><strong>Habilidad</strong> Intimidación</p>\n<p><strong>Sentidos</strong> visión con poca luz, olfato (impreciso, 30 pies)</p> <p>Sentidos</strong>.\n<p><strong>Velocidad</strong> 25 pies</p>\n<p><strong>Especial</strong> montura</p>\n<p><strong>Beneficio de apoyo</strong> Tu anquilosaurio perfora @Compendium[pf2e.conditionitems.Prone]{Prone} objetivos a su paso. Hasta el inicio de tu siguiente turno, tus Golpes que dañen a una criatura boca abajo en el alcance de tu anquilosaurio también infligen [[/r {1d8}[persistente,sangrado]]]{1d8} @Compendium[pf2e.conditionitems.Persistent Damage]{Persistent Bleed Damage}. Si tu anquilosaurio es ágil o salvaje, el daño persistente por sangrado aumenta a [[/r 2d8]]{2d8}.</p> <p\n<p><strong>Maniobra avanzada</strong> @Compendium[pf2e-animal-companions.AC-Advanced-Maneuvers.H1ElYt6KovGYGzLD]{Lumbering Derribo}</p>\n<hr />\n<p><em>Nota: Esta versión alternativa de Triceratops es proporcionada por el módulo. Se le concede el apoyo y las maniobras avanzadas de Triceratops</em></p> <p><strong>Triceratops</strong>."
        },
        "Riding Drake": {
            "name": "Montar Drake (Riding Drake)",
            "description": "<p>Tu compañero es un draco veloz y no volador con inteligencia limitada, menos feroz que la mayoría de los dragones pero ferozmente leal a ti. Un drake montado tiene el rasgo de dragón en lugar del rasgo de animal, pero por lo demás funciona normalmente como un compañero animal.</p> <p><strong>Tamaño</strong>.\n<p><strong>Tamaño</strong> Grande</p>\n<p><strong>Melee</strong> <span class=\"pf2-icon\">1</span> fauces, <strong>Daño</strong> 1d8 perforante</p>\n<p><strong>Melee</strong> <span class=\"pf2-icon\">1</span> cola, <strong>Daño</strong> 1d6 contundente</p>\n<p><strong>Str</strong> +2, <strong>Dex</strong> +1, <strong>Con</strong> +2, <strong>Int</strong> -4, <strong>Wis</strong> +1, <strong>Cha</strong> +2</p>\n<p><strong>Puntos de Golpe</strong> 8</p>\n<p><strong>Habilidad</strong> Intimidación</p>\n<p><strong>Sentidos</strong> visión en la oscuridad</p>\n<p><strong>Velocidad</strong> 45 pies</p> <p><strong>Velocidad</strong>\n<p><strong>Especial</strong> </p> <p>Montura</strong>\n<p><strong>Beneficio de apoyo</strong> Tu drake resopla fuego en la cara de tus enemigos. Hasta el inicio de tu siguiente turno, cada vez que Golpeas mientras montas al drape e impactas a una criatura en el alcance del drape, la criatura recibe [[/r {1d4}[fuego]]]{1d4 puntos de daño de fuego} del drape. Si tu drake es ágil o salvaje, el daño de fuego aumenta a [[/r 2d4]]{2d4}.</p> <p\n<p><strong>Maniobra avanzada</strong> @Compendium[pf2e-animal-companions.AC-Advanced-Maneuvers.8JdETVTpbZAgtBA3]{Arma de aliento}</p>"
        },
        "Beetle": {
            "name": "Escarabajo (Beetle)",
            "description": "<p>Tu compañero animal es un gran escarabajo ciervo no volador.</p> <p\n<p><strong>Tamaño</strong> Mediano o Grande</p>\n<p><strong>Melee</strong> <span class=\"pf2-icon\">1</span> mandíbula, <strong>Daño</strong> 1d8 perforante</p>\n<p><strong>Melee</strong> <span class=\"pf2-icon\">1</span> pie (ágil), <strong>Daño</strong> 1d6 contundente</p>\n<p><strong>Str</strong> +3, <strong>Dex</strong> +1, <strong>Con</strong> +3, <strong>Int</strong> -4, <strong>Wis</strong> +1, <strong>Cha</strong> +0</p>\n<p><strong>Puntos de Golpe</strong> 8</p>\n<p><strong>Habilidad</strong> Supervivencia</p>\n<p><strong>Sentidos</strong> visión con poca luz</p>\n<p><strong>Velocidad</strong> 35 pies</p>\n<p><strong>Especial</strong> montura</p>\n<p><strong>Beneficio de apoyo</strong> Tu escarabajo da pisotones y se estrella contra los enemigos, desequilibrándolos o apartándolos cuando elaboras una apertura. Hasta el inicio de tu siguiente turno, mientras montas en tu escarabajo, tus Golpes que infligen daño hacen que el objetivo quede @Compendium[pf2e.conditionitems.Flat-Footed]{Piesplanos}## hasta el final de tu siguiente turno o alejan al objetivo 1,5 metros del escarabajo (esto es movimiento forzado). El objetivo elige qué efecto se produce.</p> <p\n<p><strong>Maniobra avanzada</strong> @Compendium[pf2e-animal-companions.AC-Advanced-Maneuvers.zSlsnbvsGKdCTzL1]{Aligerar}</p>"
        },
        "Horse": {
            "name": "Caballo (Horse)",
            "description": "<p>Tu compañero es un caballo, poni o equino similar.</p> <p\n<p><strong>Tamaño</strong> Mediano o Grande</p>\n<p><strong>Melee</strong> <span class=\"pf2-icon\">1</span> pezuña (ágil), <strong>Daño</strong> 1d6 bludgeoning</p>\n<p><strong>Str</strong> +3, <strong>Dex</strong> +2, <strong>Con</strong> +2, <strong>Int</strong> -4, <strong>Wis</strong> +1, <strong>Cha</strong> +0</p>\n<p><strong>Puntos de Golpe</strong> 8</p>\n<p><strong>Habilidad</strong> Supervivencia</p>\n<p><strong>Sentidos</strong> visión con poca luz, olfato (impreciso, 30 pies)</p> <p><strong>Habilidad</strong> de supervivencia.\n<p><strong>Velocidad</strong> 40 pies</p>\n<p><strong>Especial</strong> montura</p>\n<p><strong>Beneficio de apoyo</strong> Tu caballo añade impulso a tu carga. Hasta el comienzo de tu siguiente turno, si te moviste al menos 10 pies en la acción anterior a tu ataque, añade un bonificador de circunstancia al daño a ese ataque igual al doble del número de dados de daño. Si tu arma ya tiene el rasgo de arma de justa, aumenta el bonificador de daño del rasgo en 2 por dado en su lugar.</p> <p>\n<p><strong>Maniobra avanzada</strong> @Compendium[pf2e-animal-companions.AC-Advanced-Maneuvers.tsOaXTRWQvsKTyaL]{Gallope}</p>"
        },
        "Hyena": {
            "name": "Hyena",
            "description": "<p>Tu compañera es una hiena.</p>\n<p><strong>Tamaño</strong> Pequeño</p>\n<p><strong>Melee</strong> <span class=\"pf2-icon\">1</span> fauces (finesse), <strong>Daño</strong> 1d8 perforante</p>\n<p><strong>Str</strong> +2, <strong>Dex</strong> +3, <strong>Con</strong> +2, <strong>Int</strong> -4, <strong>Wis</strong> +1, <strong>Cha</strong> +0</p>\n<p><strong>Puntos de Golpe</strong> 6</p>\n<p><strong>Habilidad</strong> Intimidación</p>\n<p><strong>Sentidos</strong> visión con poca luz, olfato (impreciso, 30 pies)</p> <p>Sentidos</strong>.\n<p><strong>Velocidad</strong> 40 pies</p>\n<p><strong>Beneficio de Apoyo</strong> La hiena aúlla burlonamente a tus enemigos y les muerde cuando elaboras una apertura. Hasta el comienzo de tu siguiente turno, cada vez que golpeas a una criatura en el alcance de la hiena con un Golpe, la criatura se convierte en @Compendium[pf2e.conditionitems.Frightened]{Frightened 1}#.</p> <p>\n<p><strong>Maniobra avanzada</strong> @Compendium[pf2e-animal-companions.AC-Advanced-Maneuvers.oisXYTTYE0TABboA]{Gnaw}</p>"
        },
        "Zombie": {
            "name": "Zombie",
            "description": "<p>Tu compañero es un zombi descerebrado creado a partir de un cuerpo muerto sin alma, ya sea animal o humanoide. Las estadísticas a continuación enumeran un Puñetazo, pero esto puede ser reemplazado por una garra o una opción similar más adecuada a la forma de la criatura.</p> <p\n<p><strong>Tamaño</strong> Pequeño o Mediano</p>\n<p><strong>Melee</strong> <span class=\"pf2-icon\">1</span> puño, <strong>Daño</strong> 1d8 perforante</p>\n<p><strong>Str</strong> +2, <strong>Dex</strong> +0, <strong>Con</strong> +4, <strong>Int</strong> -5, <strong>Wis</strong> +0, <strong>Cha</strong> +0</p>\n<p><strong>Puntos de Golpe</strong> 10</p>\n<p><strong>Habilidad</strong> ninguna (descerebrado)</p>\n<p><strong>Sentidos</strong> visión en la oscuridad</p>\n<p><strong>Velocidad</strong> 20 pies</p>\n<p><strong>Especial</strong> @Compendium[pf2e-animal-companions.AC-Features.CSBy1IgHTSkVAFMM]{Mindless Companion}</p>\n<p><strong>Beneficio de Apoyo</strong> El zombi emite un aura de putrefacción que hace que las heridas supuren. Hasta el comienzo de tu siguiente turno, cada vez que golpees a una criatura que esté a menos de 3 metros del zombi e inflijas daño, la criatura recibe 1d6 puntos de daño adicionales mientras la herida se pudre. Si tu zombi es ágil o salvaje, el daño aumenta a [[/r 2d6]]{2d6}. Este es un efecto de enfermedad y nigromancia.</p> <p>\n<p><strong>Maniobra avanzada</strong> @Compendium[pf2e-animal-companions.AC-Advanced-Maneuvers.LaBfTYUsvoI3nscv]{Toma el sabor}</p>"
        },
        "Badger": {
            "name": "Badger",
            "description": "<p>Tu compañero es un tejón, un glotón u otro mustélido grande.</p> <p\n<p><strong>Tamaño</strong> Pequeño</p>\n<p><strong>Melee</strong> <span class=\"pf2-icon\">1</span> fauces, <strong>Daño</strong> 1d8 perforante</p>\n<p><strong>Melee</strong> <span class=\"pf2-icon\">1</span> garra (ágil), <strong>Daño</strong> 1d6 cortante</p>\n<p><strong>Str</strong> +2, <strong>Dex</strong> +2, <strong>Con</strong> +2, <strong>Int</strong> -4, <strong>Wis</strong> +2, <strong>Cha</strong> +0</p>\n<p><strong>Puntos de Golpe</strong> 8</p>\n<p><strong>Habilidad</strong> Supervivencia</p>\n<p><strong>Sentidos</strong> visión con poca luz, olfato (impreciso, 30 pies)</p> <p><strong>Habilidad</strong> de supervivencia.\n<p><strong>Velocidad</strong> 25 pies, excavar 10 pies, Trepar 10 pies</p>\n<p><strong>Beneficio de Apoyo</strong> Tu tejón excava alrededor de la posición de tu enemigo, interfiriendo en su pisada. Hasta el inicio de tu siguiente turno, si golpeas e infliges daño a una criatura a la que amenaza tu tejón, el objetivo no puede usar una acción de Paso (a menos que pueda Dar un Paso por terreno difícil) hasta que se mueva de su posición actual.</p> <p> <strong>Beneficio de apoyo</strong>.\n<p><strong>Maniobra avanzada</strong> @Compendium[pf2e-animal-companions.AC-Advanced-Maneuvers.HLD4JW6SUn5Oy8C9]{Furia del tejón}</p>"
        },
        "Skeletal Mount": {
            "name": "Skeletal Mount",
            "description": "<p>Tu compañero es un caballo esquelético, un drake, un alce u otro animal apto para montar. Las monturas esqueléticas pueden derrumbarse, reunirse en montones de huesos y guardarse para su almacenamiento.</p> <p><strong>Caballo esquelético</strong>.\n<p><strong>Tamaño</strong> Grande</p>\n<p><strong>Melee</strong> <span class=\"pf2-icon\">1</span> pezuña (ágil), <strong>Daño</strong> 1d6 golpes contundentes</p> <p><strong>Strong</strong> 1d6 golpes contundentes</strong>.\n<p><strong>Str</strong> +2, <strong>Dex</strong> +2, <strong>Con</strong> +2, <strong>Int</strong> -5, <strong>Wis</strong> +0, <strong>Cha</strong> +0</p>\n<p><strong>Puntos de Golpe</strong> 4</p>\n<p><strong>Habilidad</strong> ninguna (descerebrado)</p>\n<p><strong>Sentidos</strong> visión en la oscuridad</p>\n<p><strong>Velocidad</strong> 35 pies</p>\n<p><strong>Especial</strong> @Compendium[pf2e-animal-companions.AC-Features.CSBy1IgHTSkVAFMM]{Compañero descerebrado}#, montura</p>\n<p><strong>Beneficio de Apoyo</strong> Tu montura esquelética infunde miedo cuando carga. Hasta el comienzo de tu siguiente turno, si estás montado en tu montura esquelética y te mueves al menos 3 metros en la acción anterior a tu ataque, cualquier criatura dañada por el ataque pasa a estar @Compendium[pf2e.conditionitems.Frightened]{Aterrorizada 1}, o @Compendium[pf2e.conditionitems.Frightened]{Aterrorizada 2}## si el ataque fue un golpe crítico. Este es un efecto de emoción, miedo y mental.</p> <p\n<p><strong>Maniobra avanzada</strong> @Compendium[pf2e-animal-companions.AC-Advanced-Maneuvers.tsOaXTRWQvsKTyaL]{Gallope}</p>"
        },
        "Bat": {
            "name": "Bat",
            "description": "<p>Tu compañero es un murciélago especialmente grande, como un murciélago gigante.</p> <p\n<p><strong>Tamaño</strong> Pequeño</p>\n<p><strong>Melee</strong> <span class=\"pf2-icon\">1</span> fauces (finesse), <strong>Daño</strong> 1d6 perforante</p>\n<p><strong>Melee</strong> <span class=\"pf2-icon\">1</span> ala (ágil, finura), <strong>Daño</strong> 1d4 cortante</p>\n<p><strong>Str</strong> +2, <strong>Dex</strong> +3, <strong>Con</strong> +2, <strong>Int</strong> -4, <strong>Wis</strong> +1, <strong>Cha</strong> +0</p>\n<p><strong>Puntos de Golpe</strong> 6</p>\n<p><strong>Habilidad</strong> Sigilo</p>\n<p><strong>Sentidos</strong> ecolocalización 20 pies (el murciélago puede usar el oído como un sentido preciso dentro de este rango), visión con poca luz</p>\n<p><strong>Velocidad</strong> 15 pies, volar 30 pies</p>\n<p><strong>Beneficio de apoyo</strong> Tu murciélago aletea alrededor de los brazos y rostros de tus enemigos, interponiéndose en sus ataques. Hasta el inicio de tu siguiente turno, las criaturas al alcance de tu murciélago a las que dañes con Golpes sufren una penalización de circunstancia de -1 a sus tiradas de ataque.</p> <p><strong>Balanceo de apoyo</strong>.\n<p><strong>Maniobra avanzada</strong> @Compendium[pf2e-animal-companions.AC-Advanced-Maneuvers.ODGf6brAHHKrSAPo]{Golpeteo con alas}</p>"
        },
        "Boar": {
            "name": "Jabalí (Boar)",
            "description": "<p>Tu compañero es un jabalí o cerdo.</p>\n<p><strong>Tamaño</strong> Pequeño</p>\n<p><strong>Melee</strong> <span class=\"pf2-icon\">1</span> colmillo, <strong>Daño</strong> 1d8 perforante</p>\n<p><strong>Str</strong> +3, <strong>Dex</strong> +1, <strong>Con</strong> +2, <strong>Int</strong> -4, <strong>Wis</strong> +2, <strong>Cha</strong> +0</p>\n<p><strong>Puntos de Golpe</strong> 8</p>\n<p><strong>Habilidad</strong> Supervivencia</p>\n<p><strong>Sentidos</strong> visión con poca luz, olfato (impreciso) 30 pies</p>\n<p><strong>Velocidad</strong> 35 pies</p>\n<p><strong>Beneficio de Apoyo</strong> Tu jabalí cornea a tus enemigos. Hasta el inicio de tu siguiente turno, tus Golpes que dañen a una criatura en el alcance de tu jabalí también infligen [[/r {1d6}[persistente,sangrado]]]{1d6} @Compendium[pf2e.conditionitems.Persistent Damage]{Daño persistente por sangrado}. Si tu jabalí es ágil o salvaje, el daño persistente por sangrado aumenta a [[/r 2d6]]{2d6}.</p> <p><strong>Daño persistente por sangrado</strong>.\n<p><strong>Maniobra avanzada</strong> @Compendium[pf2e-animal-companions.AC-Advanced-Maneuvers.EwCqdvU8WOw2SSxm]{Carga de jabalí}</p>"
        },
        "Water Wraith": {
            "name": "Espectro de Agua (Water Wraith)",
            "description": "<p>Tu compañero es un espectro de agua, un lagarto anfibio y expresivo capaz de cambiar el color de sus escamas a su antojo. Aunque tu compañero aún no ha madurado toda su fuerza e inteligencia, sigue sirviéndote con una tenacidad y una lealtad admirables, por no hablar de su boca de lamprey de dientes lacerantes y sus ocho garras y patas acuchilladoras.</p> <p>Tu compañero es un lagarto anfibio y expresivo capaz de cambiar el color de sus escamas a su antojo.\n<p><strong>Tamaño</strong> Pequeño</p>\n<p><strong>Habilidad</strong> Supervivencia</strong>\n<p><strong>Str</strong> +3, <strong>Dex</strong> +2, <strong>Con</strong> +2, <strong>Int</strong> &ndash;4, <strong>Wis</strong> +1, <strong>Cha</strong> +0 HP 6</p> <p><strong>Habilidad</strong>.\n<p><strong>Velocidad</strong> 20 pies,&nbsp;Nadar 25 pies</p>\n<p><strong>Melee</strong> <span class=\"pf2-icon\">1</span> fauces, <strong>Daño</strong> 1d8 perforante</p>\n<p><strong>Melee</strong> <span class=\"pf2-icon\">1</span> garra (ágil), <strong>Daño</strong> 1d6 cortante</p>\n<p><strong>Especial</strong> El espectro acuático puede aguantar la respiracin durante unas 2&nbsp;horas.</p>\n<p><strong>Beneficio de Apoyo</strong> Tu espectro de agua sisea y cambia de color rápidamente en un choque iridiscente, abrumando a tus enemigos en una avalancha de tonos y matices. Hasta el inicio de tu siguiente turno, cada vez que golpeas a una criatura dentro de los confines de tu espectro de agua, la criatura queda @Compendium[pf2e.conditionitems.Dazzled]{Dazzled}# durante 1 asalto.</p> <p\n<p><strong>Maniobra avanzada</strong> Traga sangre</p>"
        },
        "Skeletal Servant": {
            "name": "Skeletal Servant",
            "description": "<p>Tu compañero es un esqueleto humanoide, descerebrado pero capaz de ayudar en tareas rudimentarias. Al igual que la montura esquelética, se puede plegar para guardarlo fácilmente.</p> <p\n<p><strong>Tamaño</strong> Pequeño o Mediano</p>\n<p><strong>Melee</strong> <span class=\"pf2-icon\">1</span> Fauces, <strong>Daño</strong> 1d8 perforante</p>\n<p><strong>Melee</strong> <span class=\"pf2-icon\">1</span> garra (ágil), <strong>Daño</strong> 1d6 cortante</p>\n<p><strong>Str</strong> +2, <strong>Dex</strong> +2, <strong>Con</strong> +1, <strong>Int</strong> -5, <strong>Wis</strong> +0, <strong>Cha</strong> +1</p>\n<p><strong>Puntos de Golpe</strong> 4</p>\n<p><strong>Habilidad</strong> ninguna (descerebrado)</p>\n<p><strong>Sentidos</strong> visión en la oscuridad</p>\n<p><strong>Velocidad</strong> 20 pies</p>\n<p><strong>Especial</strong> @Compendium[pf2e-animal-companions.AC-Features.CSBy1IgHTSkVAFMM]{Mindless Companion}</p>\n<p><strong>Beneficio de apoyo</strong> Tu sirviente esquelético clava huesos en tus enemigos para distraerlos mientras atacas. Hasta el inicio de tu siguiente turno, cuando un Golpe que hagas impacte e inflija daño a una criatura dentro del alcance de tu siervo esquelético, ese objetivo pasa a ser @Compendium[pf2e.conditionitems.AJh5ex99aV6VTggg]{Piesplanos}# hasta el final de tu siguiente turno.</p> <p>\n<p><strong>Maniobra avanzada</strong> @Compendium[pf2e-animal-companions.AC-Advanced-Maneuvers.6LvtdtVVwtbzqUXG]{Screaming Skull}</p>"
        },
        "Moth": {
            "name": "Polilla (Moth)",
            "description": "<p>Tu compañero animal es una polilla gigante que se alimenta de fruta y tiene una fuerte probóscide que puede perforar la piel.</p> <p\n<p><strong>Tamaño</strong> Pequeño</p>\n<p><strong>Melee</strong> <span class=\"pf2-icon\">1</span> Probiscis (finesse), <strong>Daño</strong> 1d6 perforante</p>\n<p><strong>Str</strong> +2, <strong>Dex</strong> +3, <strong>Con</strong> +1, <strong>Int</strong> -4, <strong>Wis</strong> +2, <strong>Cha</strong> +0</p>\n<p><strong>Puntos de Golpe</strong> 6</p>\n<p><strong>Habilidad</strong> Sigilo</p>\n<p><strong>Sentidos</strong> visión en la oscuridad, olfato (impreciso, 30 pies)</p> <p>Sentidos</strong>.\n<p><strong>Velocidad</strong> 15 pies, volar 30 pies</p>\n<p><strong>Especial</strong> Tu polilla es invisible a la ecolocalización.</p> <p>Especial</strong>.\n<p><strong>Beneficio de apoyo</strong> Tu polilla suelta una lluvia de polvo para revelar a tus enemigos. Hasta el inicio de tu siguiente turno, si dañas a una criatura ###812005ae1f9ea7944e71fdf6ceb9ea###{Concealed}### o @Compendium[pf2e.conditionitems.Hidden]{Hidden}# al alcance de tu polilla con un Golpe, esa criatura sólo requiere un <span data-pf2-check=\"plano\" data-pf2-traits=\"objetivo:estado:oculto\" data-pf2-label=\"DC de acción de apoyo de la polilla\" data-pf2-dc=\"3\" data-pf2-show-dc=\"all\">Prueba plana</span> para designarlo como objetivo si está oculto, o <span data-pf2-check=\"plana\" data-pf2-traits=\"objetivo:estado:oculto\" data-pf2-label=\"DC de acción de apoyo de la polilla\" data-pf2-dc=\"9\" data-pf2-show-dc=\"all\">Flat Check</span> si está oculto. La DC reducida dura hasta el final de tu siguiente turno.</p> <p\n<p><strong>Maniobra avanzada</strong> @Compendium[pf2e-animal-companions.AC-Advanced-Maneuvers.WdTzlCO2i4loeYkQ]{Grito ultrasónico}</p>"
        }
    },
    "mapping": {
        "description": "system.description.value"
    }
}